EESchema Schematic File Version 4
EELAYER 30 0
EELAYER END
$Descr A3 16535 11693
encoding utf-8
Sheet 1 1
Title "Astrohat"
Date "2019-11-24"
Rev ""
Comp ""
Comment1 ""
Comment2 ""
Comment3 ""
Comment4 ""
$EndDescr
$Comp
L astrohat:TPS54360B-Q1 U1
U 1 1 5DD96285
P 2350 1400
F 0 "U1" H 2350 1867 50  0000 C CNN
F 1 "TPS54360B-Q1" H 2350 1776 50  0000 C CNN
F 2 "Package_SO:TI_SO-PowerPAD-8_ThermalVias" H 2400 950 50  0001 L CIN
F 3 "http://www.ti.com/lit/ds/symlink/tps54360.pdf" H 2350 1400 50  0001 C CNN
F 4 "Texas Instruments" H 2350 1400 50  0001 C CNN "MFN"
F 5 "TPS54360BQDDAQ1" H 2350 1400 50  0001 C CNN "MFP"
	1    2350 1400
	1    0    0    -1  
$EndComp
Wire Wire Line
	1950 1200 1200 1200
Text Label 850  1200 0    50   ~ 0
VIN
$Comp
L power:GND #PWR02
U 1 1 5DD98138
P 2250 2300
F 0 "#PWR02" H 2250 2050 50  0001 C CNN
F 1 "GND" H 2255 2127 50  0000 C CNN
F 2 "" H 2250 2300 50  0001 C CNN
F 3 "" H 2250 2300 50  0001 C CNN
	1    2250 2300
	1    0    0    -1  
$EndComp
Wire Wire Line
	2250 2300 2250 2050
Wire Wire Line
	2350 2050 2350 1900
Connection ~ 2250 2050
Wire Wire Line
	2250 2050 2250 1900
NoConn ~ 1950 1700
$Comp
L Device:C C2
U 1 1 5DD9882B
P 1200 1350
F 0 "C2" H 1315 1396 50  0000 L CNN
F 1 "4.7u" H 1315 1305 50  0000 L CNN
F 2 "Capacitor_SMD:C_1206_3216Metric_Pad1.42x1.75mm_HandSolder" H 1238 1200 50  0001 C CNN
F 3 "~" H 1200 1350 50  0001 C CNN
F 4 "MuRata" H 1200 1350 50  0001 C CNN "MFN"
F 5 "GRM31CR71H475KA12L" H 1200 1350 50  0001 C CNN "MFP"
	1    1200 1350
	1    0    0    -1  
$EndComp
Connection ~ 1200 1200
Wire Wire Line
	1200 1200 850  1200
Wire Wire Line
	1200 1500 1200 2050
Wire Wire Line
	1200 2050 1600 2050
$Comp
L Device:R R2
U 1 1 5DD99610
P 1600 1550
F 0 "R2" H 1670 1596 50  0000 L CNN
F 1 "56.2k" H 1670 1505 50  0000 L CNN
F 2 "Resistor_SMD:R_0805_2012Metric_Pad1.15x1.40mm_HandSolder" V 1530 1550 50  0001 C CNN
F 3 "~" H 1600 1550 50  0001 C CNN
F 4 "Panasonic" H 1600 1550 50  0001 C CNN "MFN"
F 5 "ERJ-6ENF5622V" H 1600 1550 50  0001 C CNN "MFP"
	1    1600 1550
	1    0    0    -1  
$EndComp
Wire Wire Line
	1950 1400 1600 1400
Wire Wire Line
	1600 1700 1600 2050
Connection ~ 1600 2050
Wire Wire Line
	1600 2050 2250 2050
$Comp
L Device:C C7
U 1 1 5DD9A1C8
P 3100 1800
F 0 "C7" H 3215 1846 50  0000 L CNN
F 1 "68p" H 3215 1755 50  0000 L CNN
F 2 "Capacitor_SMD:C_0603_1608Metric_Pad1.05x0.95mm_HandSolder" H 3138 1650 50  0001 C CNN
F 3 "~" H 3100 1800 50  0001 C CNN
F 4 "MuRata" H 3100 1800 50  0001 C CNN "MFN"
F 5 "GRM1885C1H680JA01D" H 3100 1800 50  0001 C CNN "MFP"
	1    3100 1800
	1    0    0    -1  
$EndComp
$Comp
L Device:C C8
U 1 1 5DD9A7BD
P 3550 1800
F 0 "C8" H 3435 1754 50  0000 R CNN
F 1 "820p" H 3435 1845 50  0000 R CNN
F 2 "Capacitor_SMD:C_0805_2012Metric_Pad1.15x1.40mm_HandSolder" H 3588 1650 50  0001 C CNN
F 3 "~" H 3550 1800 50  0001 C CNN
F 4 "AVX" H 3550 1800 50  0001 C CNN "MFN"
F 5 "08051C821J4T2A" H 3550 1800 50  0001 C CNN "MFP"
	1    3550 1800
	-1   0    0    1   
$EndComp
$Comp
L Device:R R1
U 1 1 5DD9B14F
P 3350 1500
F 0 "R1" V 3450 1500 50  0000 C CNN
F 1 "23.2k" V 3350 1500 50  0000 C CNN
F 2 "Resistor_SMD:R_0805_2012Metric_Pad1.15x1.40mm_HandSolder" V 3280 1500 50  0001 C CNN
F 3 "~" H 3350 1500 50  0001 C CNN
F 4 "Panasonic" H 3350 1500 50  0001 C CNN "MFN"
F 5 "ERJ-6ENF2322V" H 3350 1500 50  0001 C CNN "MFP"
	1    3350 1500
	0    1    1    0   
$EndComp
Wire Wire Line
	2250 2050 2350 2050
Connection ~ 2350 2050
$Comp
L Device:C C1
U 1 1 5DD9C04D
P 3150 1200
F 0 "C1" H 3265 1246 50  0000 L CNN
F 1 "100n" H 3265 1155 50  0000 L CNN
F 2 "Capacitor_SMD:C_0805_2012Metric_Pad1.15x1.40mm_HandSolder" H 3188 1050 50  0001 C CNN
F 3 "~" H 3150 1200 50  0001 C CNN
F 4 "KEMET" H 3150 1200 50  0001 C CNN "MFN"
F 5 "C0805C104K4RACTU " H 3150 1200 50  0001 C CNN "MFP"
	1    3150 1200
	0    -1   -1   0   
$EndComp
Wire Wire Line
	2750 1500 3100 1500
Wire Wire Line
	3100 1500 3100 1650
Wire Wire Line
	3100 1500 3200 1500
Connection ~ 3100 1500
Wire Wire Line
	3550 2050 3550 1950
Wire Wire Line
	2350 2050 3100 2050
Wire Wire Line
	3100 1950 3100 2050
Connection ~ 3100 2050
Wire Wire Line
	3100 2050 3550 2050
Wire Wire Line
	3550 1650 3550 1500
Wire Wire Line
	3550 1500 3500 1500
$Comp
L Device:D_Zener D1
U 1 1 5DDA07D4
P 3950 1800
F 0 "D1" V 3904 1879 50  0000 L CNN
F 1 "60V" V 3995 1879 50  0000 L CNN
F 2 "Diode_SMD:D_SMC" H 3950 1800 50  0001 C CNN
F 3 "~" H 3950 1800 50  0001 C CNN
F 4 "Diodes Inc." H 3950 1800 50  0001 C CNN "MFN"
F 5 "B560C-13-F" H 3950 1800 50  0001 C CNN "MFP"
	1    3950 1800
	0    1    1    0   
$EndComp
Wire Wire Line
	3950 1650 3950 1400
Wire Wire Line
	3550 2050 3950 2050
Wire Wire Line
	3950 2050 3950 1950
Connection ~ 3550 2050
$Comp
L Device:L L1
U 1 1 5DDA2138
P 4400 1400
F 0 "L1" V 4590 1400 50  0000 C CNN
F 1 "3.3u" V 4499 1400 50  0000 C CNN
F 2 "Inductor_SMD:L_Coilcraft_XxL4030" H 4400 1400 50  0001 C CNN
F 3 "~" H 4400 1400 50  0001 C CNN
F 4 "Coilcraft" H 4400 1400 50  0001 C CNN "MFN"
F 5 "XAL4030-332MEC" H 4400 1400 50  0001 C CNN "MFP"
	1    4400 1400
	0    -1   -1   0   
$EndComp
$Comp
L Device:R R3
U 1 1 5DDA44CC
P 4800 1550
F 0 "R3" H 4870 1596 50  0000 L CNN
F 1 "60.4k" H 4870 1505 50  0000 L CNN
F 2 "Resistor_SMD:R_0805_2012Metric_Pad1.15x1.40mm_HandSolder" V 4730 1550 50  0001 C CNN
F 3 "~" H 4800 1550 50  0001 C CNN
F 4 "Vishay-Dale" H 4800 1550 50  0001 C CNN "MFN"
F 5 "CRCW080560K4FKEA" H 4800 1550 50  0001 C CNN "MFP"
	1    4800 1550
	1    0    0    -1  
$EndComp
$Comp
L Device:R R4
U 1 1 5DDA47DA
P 4800 1850
F 0 "R4" H 4870 1896 50  0000 L CNN
F 1 "11.5k" H 4870 1805 50  0000 L CNN
F 2 "Resistor_SMD:R_0805_2012Metric_Pad1.15x1.40mm_HandSolder" V 4730 1850 50  0001 C CNN
F 3 "~" H 4800 1850 50  0001 C CNN
F 4 "Vishay-Dale" H 4800 1850 50  0001 C CNN "MFN"
F 5 "CRCW080511K5FKEA" H 4800 1850 50  0001 C CNN "MFP"
	1    4800 1850
	1    0    0    -1  
$EndComp
Wire Wire Line
	4350 1700 4800 1700
Connection ~ 4800 1700
Wire Wire Line
	3950 1400 4250 1400
Connection ~ 3950 1400
Wire Wire Line
	4800 1400 4550 1400
Wire Wire Line
	4800 2000 4800 2050
Wire Wire Line
	4800 2050 3950 2050
Connection ~ 3950 2050
Text Label 2750 1700 0    50   ~ 0
FB
Text Label 4350 1700 0    50   ~ 0
FB
$Comp
L Device:C C3
U 1 1 5DDA6369
P 5250 1700
F 0 "C3" H 5365 1746 50  0000 L CNN
F 1 "47u" H 5365 1655 50  0000 L CNN
F 2 "Capacitor_SMD:C_1206_3216Metric_Pad1.42x1.75mm_HandSolder" H 5288 1550 50  0001 C CNN
F 3 "~" H 5250 1700 50  0001 C CNN
F 4 "Taiyo Yuden" H 5250 1700 50  0001 C CNN "MFN"
F 5 "EMK316BBJ476ML-T" H 5250 1700 50  0001 C CNN "MFP"
	1    5250 1700
	1    0    0    -1  
$EndComp
$Comp
L Device:C C4
U 1 1 5DDA6883
P 5600 1700
F 0 "C4" H 5715 1746 50  0000 L CNN
F 1 "47u" H 5715 1655 50  0000 L CNN
F 2 "Capacitor_SMD:C_1206_3216Metric_Pad1.42x1.75mm_HandSolder" H 5638 1550 50  0001 C CNN
F 3 "~" H 5600 1700 50  0001 C CNN
F 4 "Taiyo Yuden" H 5600 1700 50  0001 C CNN "MFN"
F 5 "EMK316BBJ476ML-T" H 5600 1700 50  0001 C CNN "MFP"
	1    5600 1700
	1    0    0    -1  
$EndComp
$Comp
L Device:C C5
U 1 1 5DDA6AE1
P 5950 1700
F 0 "C5" H 6065 1746 50  0000 L CNN
F 1 "47u" H 6065 1655 50  0000 L CNN
F 2 "Capacitor_SMD:C_1206_3216Metric_Pad1.42x1.75mm_HandSolder" H 5988 1550 50  0001 C CNN
F 3 "~" H 5950 1700 50  0001 C CNN
F 4 "Taiyo Yuden" H 5950 1700 50  0001 C CNN "MFN"
F 5 "EMK316BBJ476ML-T" H 5950 1700 50  0001 C CNN "MFP"
	1    5950 1700
	1    0    0    -1  
$EndComp
Wire Wire Line
	4800 1400 5250 1400
Wire Wire Line
	5250 1400 5250 1550
Connection ~ 4800 1400
Wire Wire Line
	5250 1400 5600 1400
Wire Wire Line
	5600 1400 5600 1550
Connection ~ 5250 1400
Wire Wire Line
	5600 1400 5950 1400
Wire Wire Line
	5950 1400 5950 1550
Connection ~ 5600 1400
Wire Wire Line
	4800 2050 5250 2050
Wire Wire Line
	5250 2050 5250 1850
Connection ~ 4800 2050
Wire Wire Line
	5250 2050 5600 2050
Wire Wire Line
	5600 2050 5600 1850
Connection ~ 5250 2050
Wire Wire Line
	5600 2050 5950 2050
Wire Wire Line
	5950 2050 5950 1850
Connection ~ 5600 2050
Wire Wire Line
	5950 1400 6350 1400
Connection ~ 5950 1400
Text Label 11950 2100 2    50   ~ 0
V_RPI
$Comp
L Analog_ADC:MCP3004 U6
U 1 1 5DDAAA2D
P 7800 7000
F 0 "U6" H 8100 7500 50  0000 C CNN
F 1 "MCP3004" H 8100 7400 50  0000 C CNN
F 2 "Package_SO:SOIC-14_3.9x8.7mm_P1.27mm" H 8700 6700 50  0001 C CNN
F 3 "http://ww1.microchip.com/downloads/en/DeviceDoc/21295C.pdf" H 8700 6700 50  0001 C CNN
F 4 "Microchip Technology" H 7800 7000 50  0001 C CNN "MFN"
F 5 "MCP3004-I/SL" H 7800 7000 50  0001 C CNN "MFP"
	1    7800 7000
	1    0    0    -1  
$EndComp
$Comp
L astrohat:BTS7010-2EPA U4
U 1 1 5DDB2C01
P 3800 4950
F 0 "U4" H 3550 5350 50  0000 C CNN
F 1 "BTS7010-2EPA" H 4150 5350 50  0000 C CNN
F 2 "Package_SO:Infineon_PG-TSDSO-14-22" H 3800 4550 50  0001 C CNN
F 3 "https://gr.mouser.com/datasheet/2/196/Infineon-BTS7010-2EPA-DS-v01_03-EN-1274323.pdf" H 3800 4400 50  0001 C CNN
F 4 "Infineon" H 3800 4950 50  0001 C CNN "MFN"
F 5 "BTS70102EPAXUMA1 " H 3800 4950 50  0001 C CNN "MFP"
	1    3800 4950
	1    0    0    -1  
$EndComp
$Comp
L Device:R R7
U 1 1 5DDB3561
P 2950 4600
F 0 "R7" V 2850 4600 50  0000 C CNN
F 1 "4.7k" V 2950 4600 50  0000 C CNN
F 2 "Resistor_SMD:R_0603_1608Metric_Pad1.05x0.95mm_HandSolder" V 2880 4600 50  0001 C CNN
F 3 "~" H 2950 4600 50  0001 C CNN
F 4 "Panasonic" H 2950 4600 50  0001 C CNN "MFN"
F 5 "ERJ-3EKF4701V" H 2950 4600 50  0001 C CNN "MFP"
	1    2950 4600
	0    1    1    0   
$EndComp
$Comp
L Device:R R9
U 1 1 5DDB473B
P 2950 4750
F 0 "R9" V 3050 4750 50  0000 C CNN
F 1 "4.7k" V 2950 4750 50  0000 C CNN
F 2 "Resistor_SMD:R_0603_1608Metric_Pad1.05x0.95mm_HandSolder" V 2880 4750 50  0001 C CNN
F 3 "~" H 2950 4750 50  0001 C CNN
F 4 "Panasonic" H 2950 4750 50  0001 C CNN "MFN"
F 5 "ERJ-3EKF4701V" H 2950 4750 50  0001 C CNN "MFP"
	1    2950 4750
	0    1    1    0   
$EndComp
$Comp
L Device:R R12
U 1 1 5DDB541A
P 2950 5150
F 0 "R12" V 2850 5150 50  0000 C CNN
F 1 "4.7k" V 2950 5150 50  0000 C CNN
F 2 "Resistor_SMD:R_0603_1608Metric_Pad1.05x0.95mm_HandSolder" V 2880 5150 50  0001 C CNN
F 3 "~" H 2950 5150 50  0001 C CNN
F 4 "Panasonic" H 2950 5150 50  0001 C CNN "MFN"
F 5 "ERJ-3EKF4701V" H 2950 5150 50  0001 C CNN "MFP"
	1    2950 5150
	0    1    1    0   
$EndComp
$Comp
L Device:R R15
U 1 1 5DDB5A7F
P 2950 5300
F 0 "R15" V 3050 5300 50  0000 C CNN
F 1 "4.7k" V 2950 5300 50  0000 C CNN
F 2 "Resistor_SMD:R_0603_1608Metric_Pad1.05x0.95mm_HandSolder" V 2880 5300 50  0001 C CNN
F 3 "~" H 2950 5300 50  0001 C CNN
F 4 "Panasonic" H 2950 5300 50  0001 C CNN "MFN"
F 5 "ERJ-3EKF4701V" H 2950 5300 50  0001 C CNN "MFP"
	1    2950 5300
	0    1    1    0   
$EndComp
Wire Wire Line
	2450 4750 2800 4750
Wire Wire Line
	2800 4600 2450 4600
Wire Wire Line
	2800 5150 2450 5150
Wire Wire Line
	2800 5300 2450 5300
Wire Wire Line
	3400 4950 2300 4950
$Comp
L Device:R R11
U 1 1 5DDD71FC
P 2100 4950
F 0 "R11" V 2000 4950 50  0000 C CNN
F 1 "4.7k" V 2100 4950 50  0000 C CNN
F 2 "Resistor_SMD:R_0603_1608Metric_Pad1.05x0.95mm_HandSolder" V 2030 4950 50  0001 C CNN
F 3 "~" H 2100 4950 50  0001 C CNN
F 4 "Panasonic" H 2100 4950 50  0001 C CNN "MFN"
F 5 "ERJ-3EKF4701V" H 2100 4950 50  0001 C CNN "MFP"
	1    2100 4950
	0    1    1    0   
$EndComp
$Comp
L Device:D_Zener D3
U 1 1 5DDD81E1
P 1850 5250
F 0 "D3" V 1804 5329 50  0000 L CNN
F 1 "7V" V 1895 5329 50  0000 L CNN
F 2 "Diode_SMD:D_SOD-123F" H 1850 5250 50  0001 C CNN
F 3 "~" H 1850 5250 50  0001 C CNN
F 4 "Nexperia" H 1850 5250 50  0001 C CNN "MFN"
F 5 "BZT52H-B6V8,115" H 1850 5250 50  0001 C CNN "MFP"
	1    1850 5250
	0    1    1    0   
$EndComp
$Comp
L Device:R R10
U 1 1 5DDD8AAD
P 1600 4950
F 0 "R10" V 1500 4950 50  0000 C CNN
F 1 "4.7k" V 1600 4950 50  0000 C CNN
F 2 "Resistor_SMD:R_0603_1608Metric_Pad1.05x0.95mm_HandSolder" V 1530 4950 50  0001 C CNN
F 3 "~" H 1600 4950 50  0001 C CNN
F 4 "Panasonic" H 1600 4950 50  0001 C CNN "MFN"
F 5 "ERJ-3EKF4701V" H 1600 4950 50  0001 C CNN "MFP"
	1    1600 4950
	0    1    1    0   
$EndComp
$Comp
L Device:C C13
U 1 1 5DDE117D
P 1300 5250
F 0 "C13" H 1415 5296 50  0000 L CNN
F 1 "220p" H 1415 5205 50  0000 L CNN
F 2 "Capacitor_SMD:C_0603_1608Metric_Pad1.05x0.95mm_HandSolder" H 1338 5100 50  0001 C CNN
F 3 "~" H 1300 5250 50  0001 C CNN
F 4 "KEMET" H 1300 5250 50  0001 C CNN "MFN"
F 5 "C0603Y221K1RACAUTO " H 1300 5250 50  0001 C CNN "MFP"
	1    1300 5250
	1    0    0    -1  
$EndComp
Wire Wire Line
	1950 4950 1850 4950
Wire Wire Line
	1850 4950 1850 5100
Wire Wire Line
	1750 4950 1850 4950
Connection ~ 1850 4950
Wire Wire Line
	1300 5100 1300 4950
Connection ~ 1300 4950
Wire Wire Line
	1300 4950 1450 4950
Wire Wire Line
	1000 4950 1300 4950
Text Label 1000 4950 0    50   ~ 0
AD1-2
Text Label 2450 5300 0    50   ~ 0
CH1
Text Label 2450 4750 0    50   ~ 0
DEN1-2
Text Label 2450 5150 0    50   ~ 0
DSEL1-2
Text Label 2450 4600 0    50   ~ 0
CH2
$Comp
L power:GND #PWR06
U 1 1 5DE093B1
P 3800 5700
F 0 "#PWR06" H 3800 5450 50  0001 C CNN
F 1 "GND" H 3805 5527 50  0000 C CNN
F 2 "" H 3800 5700 50  0001 C CNN
F 3 "" H 3800 5700 50  0001 C CNN
	1    3800 5700
	1    0    0    -1  
$EndComp
Wire Wire Line
	3800 5700 3800 5650
Wire Wire Line
	1300 5400 1300 5650
Wire Wire Line
	1300 5650 1850 5650
Connection ~ 3800 5650
Wire Wire Line
	1850 5400 1850 5650
Connection ~ 1850 5650
Wire Wire Line
	1850 5650 2300 5650
Wire Wire Line
	3100 5300 3250 5300
Wire Wire Line
	3250 5300 3250 5150
Wire Wire Line
	3250 5150 3400 5150
Wire Wire Line
	3400 5050 3200 5050
Wire Wire Line
	3200 5050 3200 5150
Wire Wire Line
	3200 5150 3100 5150
Wire Wire Line
	3100 4750 3200 4750
Wire Wire Line
	3200 4750 3200 4850
Wire Wire Line
	3200 4850 3400 4850
Wire Wire Line
	3400 4750 3250 4750
Wire Wire Line
	3250 4750 3250 4600
Wire Wire Line
	3250 4600 3100 4600
$Comp
L Device:C C11
U 1 1 5DE4F42F
P 4900 4700
F 0 "C11" H 5015 4746 50  0000 L CNN
F 1 "10n" H 5015 4655 50  0000 L CNN
F 2 "Capacitor_SMD:C_0603_1608Metric_Pad1.05x0.95mm_HandSolder" H 4938 4550 50  0001 C CNN
F 3 "~" H 4900 4700 50  0001 C CNN
F 4 "MuRata" H 4900 4700 50  0001 C CNN "MFN"
F 5 "GCM188R72A103KA37D" H 4900 4700 50  0001 C CNN "MFP"
	1    4900 4700
	1    0    0    -1  
$EndComp
$Comp
L Device:R R8
U 1 1 5DE4E9DC
P 4550 4700
F 0 "R8" H 4620 4746 50  0000 L CNN
F 1 "47k" H 4600 4650 50  0000 L CNN
F 2 "Resistor_SMD:R_0603_1608Metric_Pad1.05x0.95mm_HandSolder" V 4480 4700 50  0001 C CNN
F 3 "~" H 4550 4700 50  0001 C CNN
F 4 "Panasonic" H 4550 4700 50  0001 C CNN "MFN"
F 5 "ERJ-3EKF4702V" H 4550 4700 50  0001 C CNN "MFP"
	1    4550 4700
	1    0    0    -1  
$EndComp
$Comp
L Device:C C12
U 1 1 5DE4FF51
P 4900 5200
F 0 "C12" H 5015 5246 50  0000 L CNN
F 1 "10n" H 5015 5155 50  0000 L CNN
F 2 "Capacitor_SMD:C_0603_1608Metric_Pad1.05x0.95mm_HandSolder" H 4938 5050 50  0001 C CNN
F 3 "~" H 4900 5200 50  0001 C CNN
F 4 "MuRata" H 4900 5200 50  0001 C CNN "MFN"
F 5 "GCM188R72A103KA37D" H 4900 5200 50  0001 C CNN "MFP"
	1    4900 5200
	1    0    0    -1  
$EndComp
$Comp
L Device:R R13
U 1 1 5DE4FF5B
P 4550 5200
F 0 "R13" H 4620 5246 50  0000 L CNN
F 1 "47k" H 4600 5150 50  0000 L CNN
F 2 "Resistor_SMD:R_0603_1608Metric_Pad1.05x0.95mm_HandSolder" V 4480 5200 50  0001 C CNN
F 3 "~" H 4550 5200 50  0001 C CNN
F 4 "Panasonic" H 4550 5200 50  0001 C CNN "MFN"
F 5 "ERJ-3EKF4702V" H 4550 5200 50  0001 C CNN "MFP"
	1    4550 5200
	1    0    0    -1  
$EndComp
Wire Wire Line
	4200 4850 4550 4850
Wire Wire Line
	4550 4850 4900 4850
Connection ~ 4550 4850
Wire Wire Line
	4900 4850 5400 4850
Connection ~ 4900 4850
Wire Wire Line
	4200 5050 4550 5050
Wire Wire Line
	4550 5050 4900 5050
Connection ~ 4550 5050
Wire Wire Line
	4900 5050 5400 5050
Connection ~ 4900 5050
Text Label 5400 4850 2    50   ~ 0
V_CH1
Text Label 5400 5050 2    50   ~ 0
V_CH2
Wire Wire Line
	4550 4550 4550 4300
Wire Wire Line
	4550 4300 4900 4300
Wire Wire Line
	5250 4300 5250 4350
Wire Wire Line
	4900 4550 4900 4300
Connection ~ 4900 4300
Wire Wire Line
	4900 4300 5250 4300
$Comp
L power:GND #PWR05
U 1 1 5DE88A12
P 5250 4350
F 0 "#PWR05" H 5250 4100 50  0001 C CNN
F 1 "GND" H 5255 4177 50  0000 C CNN
F 2 "" H 5250 4350 50  0001 C CNN
F 3 "" H 5250 4350 50  0001 C CNN
	1    5250 4350
	1    0    0    -1  
$EndComp
Wire Wire Line
	3800 5650 4550 5650
Wire Wire Line
	4550 5650 4550 5350
Wire Wire Line
	4550 5650 4900 5650
Wire Wire Line
	4900 5650 4900 5350
Connection ~ 4550 5650
$Comp
L Device:R R16
U 1 1 5DEC0DD5
P 3800 5500
F 0 "R16" H 3870 5546 50  0000 L CNN
F 1 "47" H 3870 5455 50  0000 L CNN
F 2 "Resistor_SMD:R_0603_1608Metric_Pad1.05x0.95mm_HandSolder" V 3730 5500 50  0001 C CNN
F 3 "~" H 3800 5500 50  0001 C CNN
F 4 "Panasonic" H 3800 5500 50  0001 C CNN "MFN"
F 5 "ERJ-3EKF47R0V" H 3800 5500 50  0001 C CNN "MFP"
	1    3800 5500
	1    0    0    -1  
$EndComp
$Comp
L Device:R R14
U 1 1 5DEDC1E1
P 2300 5250
F 0 "R14" H 2150 5300 50  0000 L CNN
F 1 "1.2k" H 2100 5200 50  0000 L CNN
F 2 "Resistor_SMD:R_0603_1608Metric_Pad1.05x0.95mm_HandSolder" V 2230 5250 50  0001 C CNN
F 3 "~" H 2300 5250 50  0001 C CNN
F 4 "Panasonic" H 2300 5250 50  0001 C CNN "MFN"
F 5 "ERJ-3EKF1201V" H 2300 5250 50  0001 C CNN "MFP"
	1    2300 5250
	1    0    0    -1  
$EndComp
Wire Wire Line
	2300 5100 2300 4950
Connection ~ 2300 4950
Wire Wire Line
	2300 4950 2250 4950
Wire Wire Line
	2300 5400 2300 5650
Connection ~ 2300 5650
Wire Wire Line
	2300 5650 3800 5650
$Comp
L Device:C C10
U 1 1 5DEE9A62
P 4150 4300
F 0 "C10" V 4050 4400 50  0000 C CNN
F 1 "68n" V 4200 4450 50  0000 C CNN
F 2 "Capacitor_SMD:C_0603_1608Metric_Pad1.05x0.95mm_HandSolder" H 4188 4150 50  0001 C CNN
F 3 "~" H 4150 4300 50  0001 C CNN
F 4 "KEMET" H 4150 4300 50  0001 C CNN "MFN"
F 5 "C0603C683K4RACAUTO" H 4150 4300 50  0001 C CNN "MFP"
	1    4150 4300
	0    1    1    0   
$EndComp
$Comp
L Device:D_TVS D2
U 1 1 5DEEBCE1
P 4550 4100
F 0 "D2" H 4550 4316 50  0000 C CNN
F 1 "33V" H 4550 4225 50  0000 C CNN
F 2 "Diode_SMD:D_SOD-123F" H 4550 4100 50  0001 C CNN
F 3 "~" H 4550 4100 50  0001 C CNN
F 4 "Bourns" H 4550 4100 50  0001 C CNN "MFN"
F 5 "SMF4L33A-Q" H 4550 4100 50  0001 C CNN "MFP"
	1    4550 4100
	1    0    0    -1  
$EndComp
Wire Wire Line
	4700 4100 4900 4100
Wire Wire Line
	4900 4100 4900 4300
Wire Wire Line
	4300 4300 4550 4300
Connection ~ 4550 4300
Wire Wire Line
	4400 4100 3800 4100
Wire Wire Line
	3800 4100 3800 4300
Wire Wire Line
	4000 4300 3800 4300
Connection ~ 3800 4300
Wire Wire Line
	3800 4300 3800 4550
Wire Wire Line
	3800 4100 3800 3900
Connection ~ 3800 4100
Text Label 3800 3900 0    50   ~ 0
VIN
$Comp
L astrohat:BTS7010-2EPA U5
U 1 1 5DF3696A
P 3850 7400
F 0 "U5" H 3600 7800 50  0000 C CNN
F 1 "BTS7010-2EPA" H 4200 7800 50  0000 C CNN
F 2 "Package_SO:Infineon_PG-TSDSO-14-22" H 3850 7000 50  0001 C CNN
F 3 "https://gr.mouser.com/datasheet/2/196/Infineon-BTS7010-2EPA-DS-v01_03-EN-1274323.pdf" H 3850 6850 50  0001 C CNN
F 4 "Infineon" H 3850 7400 50  0001 C CNN "MFN"
F 5 "BTS70102EPAXUMA1 " H 3850 7400 50  0001 C CNN "MFP"
	1    3850 7400
	1    0    0    -1  
$EndComp
$Comp
L Device:R R17
U 1 1 5DF36974
P 3000 7050
F 0 "R17" V 2900 7050 50  0000 C CNN
F 1 "4.7k" V 3000 7050 50  0000 C CNN
F 2 "Resistor_SMD:R_0603_1608Metric_Pad1.05x0.95mm_HandSolder" V 2930 7050 50  0001 C CNN
F 3 "~" H 3000 7050 50  0001 C CNN
F 4 "Panasonic" H 3000 7050 50  0001 C CNN "MFN"
F 5 "ERJ-3EKF4701V" H 3000 7050 50  0001 C CNN "MFP"
	1    3000 7050
	0    1    1    0   
$EndComp
$Comp
L Device:R R19
U 1 1 5DF3697E
P 3000 7200
F 0 "R19" V 3100 7200 50  0000 C CNN
F 1 "4.7k" V 3000 7200 50  0000 C CNN
F 2 "Resistor_SMD:R_0603_1608Metric_Pad1.05x0.95mm_HandSolder" V 2930 7200 50  0001 C CNN
F 3 "~" H 3000 7200 50  0001 C CNN
F 4 "Panasonic" H 3000 7200 50  0001 C CNN "MFN"
F 5 "ERJ-3EKF4701V" H 3000 7200 50  0001 C CNN "MFP"
	1    3000 7200
	0    1    1    0   
$EndComp
$Comp
L Device:R R22
U 1 1 5DF36988
P 3000 7600
F 0 "R22" V 2900 7600 50  0000 C CNN
F 1 "4.7k" V 3000 7600 50  0000 C CNN
F 2 "Resistor_SMD:R_0603_1608Metric_Pad1.05x0.95mm_HandSolder" V 2930 7600 50  0001 C CNN
F 3 "~" H 3000 7600 50  0001 C CNN
F 4 "Panasonic" H 3000 7600 50  0001 C CNN "MFN"
F 5 "ERJ-3EKF4701V" H 3000 7600 50  0001 C CNN "MFP"
	1    3000 7600
	0    1    1    0   
$EndComp
$Comp
L Device:R R25
U 1 1 5DF36992
P 3000 7750
F 0 "R25" V 3100 7750 50  0000 C CNN
F 1 "4.7k" V 3000 7750 50  0000 C CNN
F 2 "Resistor_SMD:R_0603_1608Metric_Pad1.05x0.95mm_HandSolder" V 2930 7750 50  0001 C CNN
F 3 "~" H 3000 7750 50  0001 C CNN
F 4 "Panasonic" H 3000 7750 50  0001 C CNN "MFN"
F 5 "ERJ-3EKF4701V" H 3000 7750 50  0001 C CNN "MFP"
	1    3000 7750
	0    1    1    0   
$EndComp
Wire Wire Line
	2500 7200 2850 7200
Wire Wire Line
	2850 7050 2500 7050
Wire Wire Line
	2850 7600 2500 7600
Wire Wire Line
	2850 7750 2500 7750
Wire Wire Line
	3450 7400 2350 7400
$Comp
L Device:R R21
U 1 1 5DF369A1
P 2150 7400
F 0 "R21" V 2050 7400 50  0000 C CNN
F 1 "4.7k" V 2150 7400 50  0000 C CNN
F 2 "Resistor_SMD:R_0603_1608Metric_Pad1.05x0.95mm_HandSolder" V 2080 7400 50  0001 C CNN
F 3 "~" H 2150 7400 50  0001 C CNN
F 4 "Panasonic" H 2150 7400 50  0001 C CNN "MFN"
F 5 "ERJ-3EKF4701V" H 2150 7400 50  0001 C CNN "MFP"
	1    2150 7400
	0    1    1    0   
$EndComp
$Comp
L Device:D_Zener D5
U 1 1 5DF369AB
P 1900 7700
F 0 "D5" V 1854 7779 50  0000 L CNN
F 1 "7V" V 1945 7779 50  0000 L CNN
F 2 "Diode_SMD:D_SOD-123F" H 1900 7700 50  0001 C CNN
F 3 "~" H 1900 7700 50  0001 C CNN
F 4 "Nexperia" H 1900 7700 50  0001 C CNN "MFN"
F 5 "BZT52H-B6V8,115" H 1900 7700 50  0001 C CNN "MFP"
	1    1900 7700
	0    1    1    0   
$EndComp
$Comp
L Device:R R20
U 1 1 5DF369B5
P 1650 7400
F 0 "R20" V 1550 7400 50  0000 C CNN
F 1 "4.7k" V 1650 7400 50  0000 C CNN
F 2 "Resistor_SMD:R_0603_1608Metric_Pad1.05x0.95mm_HandSolder" V 1580 7400 50  0001 C CNN
F 3 "~" H 1650 7400 50  0001 C CNN
F 4 "Panasonic" H 1650 7400 50  0001 C CNN "MFN"
F 5 "ERJ-3EKF4701V" H 1650 7400 50  0001 C CNN "MFP"
	1    1650 7400
	0    1    1    0   
$EndComp
Wire Wire Line
	2000 7400 1900 7400
Wire Wire Line
	1900 7400 1900 7550
Wire Wire Line
	1800 7400 1900 7400
Connection ~ 1900 7400
Wire Wire Line
	1350 7550 1350 7400
Connection ~ 1350 7400
Wire Wire Line
	1350 7400 1500 7400
Wire Wire Line
	1050 7400 1350 7400
Text Label 1050 7400 0    50   ~ 0
AD3-4
Text Label 2500 7750 0    50   ~ 0
CH3
Text Label 2500 7200 0    50   ~ 0
DEN3-4
Text Label 2500 7600 0    50   ~ 0
DSEL3-4
Text Label 2500 7050 0    50   ~ 0
CH4
$Comp
L power:GND #PWR09
U 1 1 5DF369D6
P 3850 8150
F 0 "#PWR09" H 3850 7900 50  0001 C CNN
F 1 "GND" H 3855 7977 50  0000 C CNN
F 2 "" H 3850 8150 50  0001 C CNN
F 3 "" H 3850 8150 50  0001 C CNN
	1    3850 8150
	1    0    0    -1  
$EndComp
Wire Wire Line
	3850 8150 3850 8100
Wire Wire Line
	1350 7850 1350 8100
Wire Wire Line
	1350 8100 1900 8100
Connection ~ 3850 8100
Wire Wire Line
	1900 7850 1900 8100
Connection ~ 1900 8100
Wire Wire Line
	1900 8100 2350 8100
Wire Wire Line
	3150 7750 3300 7750
Wire Wire Line
	3300 7750 3300 7600
Wire Wire Line
	3300 7600 3450 7600
Wire Wire Line
	3450 7500 3250 7500
Wire Wire Line
	3250 7500 3250 7600
Wire Wire Line
	3250 7600 3150 7600
Wire Wire Line
	3150 7200 3250 7200
Wire Wire Line
	3250 7200 3250 7300
Wire Wire Line
	3250 7300 3450 7300
Wire Wire Line
	3450 7200 3300 7200
Wire Wire Line
	3300 7200 3300 7050
Wire Wire Line
	3300 7050 3150 7050
$Comp
L Device:C C15
U 1 1 5DF369F3
P 4950 7150
F 0 "C15" H 5065 7196 50  0000 L CNN
F 1 "10n" H 5065 7105 50  0000 L CNN
F 2 "Capacitor_SMD:C_0603_1608Metric_Pad1.05x0.95mm_HandSolder" H 4988 7000 50  0001 C CNN
F 3 "~" H 4950 7150 50  0001 C CNN
F 4 "MuRata" H 4950 7150 50  0001 C CNN "MFN"
F 5 "GCM188R72A103KA37D" H 4950 7150 50  0001 C CNN "MFP"
	1    4950 7150
	1    0    0    -1  
$EndComp
$Comp
L Device:R R18
U 1 1 5DF369FD
P 4600 7150
F 0 "R18" H 4670 7196 50  0000 L CNN
F 1 "47k" H 4650 7100 50  0000 L CNN
F 2 "Resistor_SMD:R_0603_1608Metric_Pad1.05x0.95mm_HandSolder" V 4530 7150 50  0001 C CNN
F 3 "~" H 4600 7150 50  0001 C CNN
F 4 "Panasonic" H 4600 7150 50  0001 C CNN "MFN"
F 5 "ERJ-3EKF4702V" H 4600 7150 50  0001 C CNN "MFP"
	1    4600 7150
	1    0    0    -1  
$EndComp
$Comp
L Device:C C16
U 1 1 5DF36A07
P 4950 7650
F 0 "C16" H 5065 7696 50  0000 L CNN
F 1 "10n" H 5065 7605 50  0000 L CNN
F 2 "Capacitor_SMD:C_0603_1608Metric_Pad1.05x0.95mm_HandSolder" H 4988 7500 50  0001 C CNN
F 3 "~" H 4950 7650 50  0001 C CNN
F 4 "MuRata" H 4950 7650 50  0001 C CNN "MFN"
F 5 "GCM188R72A103KA37D" H 4950 7650 50  0001 C CNN "MFP"
	1    4950 7650
	1    0    0    -1  
$EndComp
$Comp
L Device:R R23
U 1 1 5DF36A11
P 4600 7650
F 0 "R23" H 4670 7696 50  0000 L CNN
F 1 "47k" H 4650 7600 50  0000 L CNN
F 2 "Resistor_SMD:R_0603_1608Metric_Pad1.05x0.95mm_HandSolder" V 4530 7650 50  0001 C CNN
F 3 "~" H 4600 7650 50  0001 C CNN
F 4 "Panasonic" H 4600 7650 50  0001 C CNN "MFN"
F 5 "ERJ-3EKF4702V" H 4600 7650 50  0001 C CNN "MFP"
	1    4600 7650
	1    0    0    -1  
$EndComp
Wire Wire Line
	4250 7300 4600 7300
Wire Wire Line
	4600 7300 4950 7300
Connection ~ 4600 7300
Wire Wire Line
	4950 7300 5450 7300
Connection ~ 4950 7300
Wire Wire Line
	4250 7500 4600 7500
Wire Wire Line
	4600 7500 4950 7500
Connection ~ 4600 7500
Wire Wire Line
	4950 7500 5450 7500
Connection ~ 4950 7500
Text Label 5450 7300 2    50   ~ 0
V_CH3
Text Label 5450 7500 2    50   ~ 0
V_CH4
Wire Wire Line
	4600 7000 4600 6750
Wire Wire Line
	4600 6750 4950 6750
Wire Wire Line
	5300 6750 5300 6800
Wire Wire Line
	4950 7000 4950 6750
Connection ~ 4950 6750
Wire Wire Line
	4950 6750 5300 6750
$Comp
L power:GND #PWR07
U 1 1 5DF36A2D
P 5300 6800
F 0 "#PWR07" H 5300 6550 50  0001 C CNN
F 1 "GND" H 5305 6627 50  0000 C CNN
F 2 "" H 5300 6800 50  0001 C CNN
F 3 "" H 5300 6800 50  0001 C CNN
	1    5300 6800
	1    0    0    -1  
$EndComp
Wire Wire Line
	3850 8100 4600 8100
Wire Wire Line
	4600 8100 4600 7800
Wire Wire Line
	4600 8100 4950 8100
Wire Wire Line
	4950 8100 4950 7800
Connection ~ 4600 8100
$Comp
L Device:R R26
U 1 1 5DF36A3C
P 3850 7950
F 0 "R26" H 3920 7996 50  0000 L CNN
F 1 "47" H 3920 7905 50  0000 L CNN
F 2 "Resistor_SMD:R_0603_1608Metric_Pad1.05x0.95mm_HandSolder" V 3780 7950 50  0001 C CNN
F 3 "~" H 3850 7950 50  0001 C CNN
F 4 "Panasonic" H 3850 7950 50  0001 C CNN "MFN"
F 5 "ERJ-3EKF47R0V" H 3850 7950 50  0001 C CNN "MFP"
	1    3850 7950
	1    0    0    -1  
$EndComp
$Comp
L Device:R R24
U 1 1 5DF36A46
P 2350 7700
F 0 "R24" H 2200 7750 50  0000 L CNN
F 1 "1.2k" H 2150 7650 50  0000 L CNN
F 2 "Resistor_SMD:R_0603_1608Metric_Pad1.05x0.95mm_HandSolder" V 2280 7700 50  0001 C CNN
F 3 "~" H 2350 7700 50  0001 C CNN
F 4 "Panasonic" H 2350 7700 50  0001 C CNN "MFN"
F 5 "ERJ-3EKF1201V" H 2350 7700 50  0001 C CNN "MFP"
	1    2350 7700
	1    0    0    -1  
$EndComp
Wire Wire Line
	2350 7550 2350 7400
Connection ~ 2350 7400
Wire Wire Line
	2350 7400 2300 7400
Wire Wire Line
	2350 7850 2350 8100
Connection ~ 2350 8100
Wire Wire Line
	2350 8100 3850 8100
$Comp
L Device:C C14
U 1 1 5DF36A56
P 4200 6750
F 0 "C14" V 4100 6850 50  0000 C CNN
F 1 "68n" V 4250 6900 50  0000 C CNN
F 2 "Capacitor_SMD:C_0603_1608Metric_Pad1.05x0.95mm_HandSolder" H 4238 6600 50  0001 C CNN
F 3 "~" H 4200 6750 50  0001 C CNN
F 4 "KEMET" H 4200 6750 50  0001 C CNN "MFN"
F 5 "C0603C683K4RACAUTO" H 4200 6750 50  0001 C CNN "MFP"
	1    4200 6750
	0    1    1    0   
$EndComp
$Comp
L Device:D_TVS D4
U 1 1 5DF36A60
P 4600 6550
F 0 "D4" H 4600 6766 50  0000 C CNN
F 1 "33V" H 4600 6675 50  0000 C CNN
F 2 "Diode_SMD:D_SOD-123F" H 4600 6550 50  0001 C CNN
F 3 "~" H 4600 6550 50  0001 C CNN
F 4 "Bourns" H 4600 6550 50  0001 C CNN "MFN"
F 5 "SMF4L33A-Q" H 4600 6550 50  0001 C CNN "MFP"
	1    4600 6550
	1    0    0    -1  
$EndComp
Wire Wire Line
	4750 6550 4950 6550
Wire Wire Line
	4950 6550 4950 6750
Wire Wire Line
	4350 6750 4600 6750
Connection ~ 4600 6750
Wire Wire Line
	4450 6550 3850 6550
Wire Wire Line
	3850 6550 3850 6750
Wire Wire Line
	4050 6750 3850 6750
Connection ~ 3850 6750
Wire Wire Line
	3850 6750 3850 7000
Wire Wire Line
	3850 6550 3850 6350
Connection ~ 3850 6550
Text Label 3850 6350 0    50   ~ 0
VIN
$Comp
L astrohat:BTS7010-2EPA U7
U 1 1 5DF4E4F9
P 3850 9900
F 0 "U7" H 3600 10300 50  0000 C CNN
F 1 "BTS7010-2EPA" H 4200 10300 50  0000 C CNN
F 2 "Package_SO:Infineon_PG-TSDSO-14-22" H 3850 9500 50  0001 C CNN
F 3 "https://gr.mouser.com/datasheet/2/196/Infineon-BTS7010-2EPA-DS-v01_03-EN-1274323.pdf" H 3850 9350 50  0001 C CNN
F 4 "Infineon" H 3850 9900 50  0001 C CNN "MFN"
F 5 "BTS70102EPAXUMA1 " H 3850 9900 50  0001 C CNN "MFP"
	1    3850 9900
	1    0    0    -1  
$EndComp
$Comp
L Device:R R27
U 1 1 5DF4E503
P 3000 9550
F 0 "R27" V 2900 9550 50  0000 C CNN
F 1 "4.7k" V 3000 9550 50  0000 C CNN
F 2 "Resistor_SMD:R_0603_1608Metric_Pad1.05x0.95mm_HandSolder" V 2930 9550 50  0001 C CNN
F 3 "~" H 3000 9550 50  0001 C CNN
F 4 "Panasonic" H 3000 9550 50  0001 C CNN "MFN"
F 5 "ERJ-3EKF4701V" H 3000 9550 50  0001 C CNN "MFP"
	1    3000 9550
	0    1    1    0   
$EndComp
$Comp
L Device:R R29
U 1 1 5DF4E50D
P 3000 9700
F 0 "R29" V 3100 9700 50  0000 C CNN
F 1 "4.7k" V 3000 9700 50  0000 C CNN
F 2 "Resistor_SMD:R_0603_1608Metric_Pad1.05x0.95mm_HandSolder" V 2930 9700 50  0001 C CNN
F 3 "~" H 3000 9700 50  0001 C CNN
F 4 "Panasonic" H 3000 9700 50  0001 C CNN "MFN"
F 5 "ERJ-3EKF4701V" H 3000 9700 50  0001 C CNN "MFP"
	1    3000 9700
	0    1    1    0   
$EndComp
$Comp
L Device:R R32
U 1 1 5DF4E517
P 3000 10100
F 0 "R32" V 2900 10100 50  0000 C CNN
F 1 "4.7k" V 3000 10100 50  0000 C CNN
F 2 "Resistor_SMD:R_0603_1608Metric_Pad1.05x0.95mm_HandSolder" V 2930 10100 50  0001 C CNN
F 3 "~" H 3000 10100 50  0001 C CNN
F 4 "Panasonic" H 3000 10100 50  0001 C CNN "MFN"
F 5 "ERJ-3EKF4701V" H 3000 10100 50  0001 C CNN "MFP"
	1    3000 10100
	0    1    1    0   
$EndComp
$Comp
L Device:R R35
U 1 1 5DF4E521
P 3000 10250
F 0 "R35" V 3100 10250 50  0000 C CNN
F 1 "4.7k" V 3000 10250 50  0000 C CNN
F 2 "Resistor_SMD:R_0603_1608Metric_Pad1.05x0.95mm_HandSolder" V 2930 10250 50  0001 C CNN
F 3 "~" H 3000 10250 50  0001 C CNN
F 4 "Panasonic" H 3000 10250 50  0001 C CNN "MFN"
F 5 "ERJ-3EKF4701V" H 3000 10250 50  0001 C CNN "MFP"
	1    3000 10250
	0    1    1    0   
$EndComp
Wire Wire Line
	2500 9700 2850 9700
Wire Wire Line
	2850 9550 2500 9550
Wire Wire Line
	2850 10100 2500 10100
Wire Wire Line
	2850 10250 2500 10250
Wire Wire Line
	3450 9900 2350 9900
$Comp
L Device:R R31
U 1 1 5DF4E530
P 2150 9900
F 0 "R31" V 2050 9900 50  0000 C CNN
F 1 "4.7k" V 2150 9900 50  0000 C CNN
F 2 "Resistor_SMD:R_0603_1608Metric_Pad1.05x0.95mm_HandSolder" V 2080 9900 50  0001 C CNN
F 3 "~" H 2150 9900 50  0001 C CNN
F 4 "Panasonic" H 2150 9900 50  0001 C CNN "MFN"
F 5 "ERJ-3EKF4701V" H 2150 9900 50  0001 C CNN "MFP"
	1    2150 9900
	0    1    1    0   
$EndComp
$Comp
L Device:D_Zener D7
U 1 1 5DF4E53A
P 1900 10200
F 0 "D7" V 1854 10279 50  0000 L CNN
F 1 "7V" V 1945 10279 50  0000 L CNN
F 2 "Diode_SMD:D_SOD-123F" H 1900 10200 50  0001 C CNN
F 3 "~" H 1900 10200 50  0001 C CNN
F 4 "Nexperia" H 1900 10200 50  0001 C CNN "MFN"
F 5 "BZT52H-B6V8,115" H 1900 10200 50  0001 C CNN "MFP"
	1    1900 10200
	0    1    1    0   
$EndComp
$Comp
L Device:R R30
U 1 1 5DF4E544
P 1650 9900
F 0 "R30" V 1550 9900 50  0000 C CNN
F 1 "4.7k" V 1650 9900 50  0000 C CNN
F 2 "Resistor_SMD:R_0603_1608Metric_Pad1.05x0.95mm_HandSolder" V 1580 9900 50  0001 C CNN
F 3 "~" H 1650 9900 50  0001 C CNN
F 4 "Panasonic" H 1650 9900 50  0001 C CNN "MFN"
F 5 "ERJ-3EKF4701V" H 1650 9900 50  0001 C CNN "MFP"
	1    1650 9900
	0    1    1    0   
$EndComp
$Comp
L Device:C C21
U 1 1 5DF4E54E
P 1350 10200
F 0 "C21" H 1465 10246 50  0000 L CNN
F 1 "220p" H 1465 10155 50  0000 L CNN
F 2 "Capacitor_SMD:C_0603_1608Metric_Pad1.05x0.95mm_HandSolder" H 1388 10050 50  0001 C CNN
F 3 "~" H 1350 10200 50  0001 C CNN
F 4 "KEMET" H 1350 10200 50  0001 C CNN "MFN"
F 5 "C0603Y221K1RACAUTO " H 1350 10200 50  0001 C CNN "MFP"
	1    1350 10200
	1    0    0    -1  
$EndComp
Wire Wire Line
	2000 9900 1900 9900
Wire Wire Line
	1900 9900 1900 10050
Wire Wire Line
	1800 9900 1900 9900
Connection ~ 1900 9900
Wire Wire Line
	1350 10050 1350 9900
Connection ~ 1350 9900
Wire Wire Line
	1350 9900 1500 9900
Wire Wire Line
	1050 9900 1350 9900
Text Label 1050 9900 0    50   ~ 0
AD5-6
Text Label 2500 10250 0    50   ~ 0
CH5
Text Label 2500 9700 0    50   ~ 0
DEN5-6
Text Label 2500 10100 0    50   ~ 0
DSEL5-6
Text Label 2500 9550 0    50   ~ 0
CH6
$Comp
L power:GND #PWR012
U 1 1 5DF4E565
P 3850 10650
F 0 "#PWR012" H 3850 10400 50  0001 C CNN
F 1 "GND" H 3855 10477 50  0000 C CNN
F 2 "" H 3850 10650 50  0001 C CNN
F 3 "" H 3850 10650 50  0001 C CNN
	1    3850 10650
	1    0    0    -1  
$EndComp
Wire Wire Line
	3850 10650 3850 10600
Wire Wire Line
	1350 10350 1350 10600
Wire Wire Line
	1350 10600 1900 10600
Connection ~ 3850 10600
Wire Wire Line
	1900 10350 1900 10600
Connection ~ 1900 10600
Wire Wire Line
	1900 10600 2350 10600
Wire Wire Line
	3150 10250 3300 10250
Wire Wire Line
	3300 10250 3300 10100
Wire Wire Line
	3300 10100 3450 10100
Wire Wire Line
	3450 10000 3250 10000
Wire Wire Line
	3250 10000 3250 10100
Wire Wire Line
	3250 10100 3150 10100
Wire Wire Line
	3150 9700 3250 9700
Wire Wire Line
	3250 9700 3250 9800
Wire Wire Line
	3250 9800 3450 9800
Wire Wire Line
	3450 9700 3300 9700
Wire Wire Line
	3300 9700 3300 9550
Wire Wire Line
	3300 9550 3150 9550
$Comp
L Device:C C19
U 1 1 5DF4E582
P 4950 9650
F 0 "C19" H 5065 9696 50  0000 L CNN
F 1 "10n" H 5065 9605 50  0000 L CNN
F 2 "Capacitor_SMD:C_0603_1608Metric_Pad1.05x0.95mm_HandSolder" H 4988 9500 50  0001 C CNN
F 3 "~" H 4950 9650 50  0001 C CNN
F 4 "MuRata" H 4950 9650 50  0001 C CNN "MFN"
F 5 "GCM188R72A103KA37D" H 4950 9650 50  0001 C CNN "MFP"
	1    4950 9650
	1    0    0    -1  
$EndComp
$Comp
L Device:R R28
U 1 1 5DF4E58C
P 4600 9650
F 0 "R28" H 4670 9696 50  0000 L CNN
F 1 "47k" H 4650 9600 50  0000 L CNN
F 2 "Resistor_SMD:R_0603_1608Metric_Pad1.05x0.95mm_HandSolder" V 4530 9650 50  0001 C CNN
F 3 "~" H 4600 9650 50  0001 C CNN
F 4 "Panasonic" H 4600 9650 50  0001 C CNN "MFN"
F 5 "ERJ-3EKF4702V" H 4600 9650 50  0001 C CNN "MFP"
	1    4600 9650
	1    0    0    -1  
$EndComp
$Comp
L Device:C C20
U 1 1 5DF4E596
P 4950 10150
F 0 "C20" H 5065 10196 50  0000 L CNN
F 1 "10n" H 5065 10105 50  0000 L CNN
F 2 "Capacitor_SMD:C_0603_1608Metric_Pad1.05x0.95mm_HandSolder" H 4988 10000 50  0001 C CNN
F 3 "~" H 4950 10150 50  0001 C CNN
F 4 "MuRata" H 4950 10150 50  0001 C CNN "MFN"
F 5 "GCM188R72A103KA37D" H 4950 10150 50  0001 C CNN "MFP"
	1    4950 10150
	1    0    0    -1  
$EndComp
$Comp
L Device:R R33
U 1 1 5DF4E5A0
P 4600 10150
F 0 "R33" H 4670 10196 50  0000 L CNN
F 1 "47k" H 4650 10100 50  0000 L CNN
F 2 "Resistor_SMD:R_0603_1608Metric_Pad1.05x0.95mm_HandSolder" V 4530 10150 50  0001 C CNN
F 3 "~" H 4600 10150 50  0001 C CNN
F 4 "Panasonic" H 4600 10150 50  0001 C CNN "MFN"
F 5 "ERJ-3EKF4702V" H 4600 10150 50  0001 C CNN "MFP"
	1    4600 10150
	1    0    0    -1  
$EndComp
Wire Wire Line
	4250 9800 4600 9800
Wire Wire Line
	4600 9800 4950 9800
Connection ~ 4600 9800
Wire Wire Line
	4950 9800 5450 9800
Connection ~ 4950 9800
Wire Wire Line
	4250 10000 4600 10000
Wire Wire Line
	4600 10000 4950 10000
Connection ~ 4600 10000
Wire Wire Line
	4950 10000 5450 10000
Connection ~ 4950 10000
Text Label 5450 9800 2    50   ~ 0
V_CH5
Text Label 5450 10000 2    50   ~ 0
V_CH6
Wire Wire Line
	4600 9500 4600 9250
Wire Wire Line
	4600 9250 4950 9250
Wire Wire Line
	5300 9250 5300 9300
Wire Wire Line
	4950 9500 4950 9250
Connection ~ 4950 9250
Wire Wire Line
	4950 9250 5300 9250
$Comp
L power:GND #PWR011
U 1 1 5DF4E5BC
P 5300 9300
F 0 "#PWR011" H 5300 9050 50  0001 C CNN
F 1 "GND" H 5305 9127 50  0000 C CNN
F 2 "" H 5300 9300 50  0001 C CNN
F 3 "" H 5300 9300 50  0001 C CNN
	1    5300 9300
	1    0    0    -1  
$EndComp
Wire Wire Line
	3850 10600 4600 10600
Wire Wire Line
	4600 10600 4600 10300
Wire Wire Line
	4600 10600 4950 10600
Wire Wire Line
	4950 10600 4950 10300
Connection ~ 4600 10600
$Comp
L Device:R R36
U 1 1 5DF4E5CB
P 3850 10450
F 0 "R36" H 3920 10496 50  0000 L CNN
F 1 "47" H 3920 10405 50  0000 L CNN
F 2 "Resistor_SMD:R_0603_1608Metric_Pad1.05x0.95mm_HandSolder" V 3780 10450 50  0001 C CNN
F 3 "~" H 3850 10450 50  0001 C CNN
F 4 "Panasonic" H 3850 10450 50  0001 C CNN "MFN"
F 5 "ERJ-3EKF47R0V" H 3850 10450 50  0001 C CNN "MFP"
	1    3850 10450
	1    0    0    -1  
$EndComp
$Comp
L Device:R R34
U 1 1 5DF4E5D5
P 2350 10200
F 0 "R34" H 2200 10250 50  0000 L CNN
F 1 "1.2k" H 2150 10150 50  0000 L CNN
F 2 "Resistor_SMD:R_0603_1608Metric_Pad1.05x0.95mm_HandSolder" V 2280 10200 50  0001 C CNN
F 3 "~" H 2350 10200 50  0001 C CNN
F 4 "Panasonic" H 2350 10200 50  0001 C CNN "MFN"
F 5 "ERJ-3EKF1201V" H 2350 10200 50  0001 C CNN "MFP"
	1    2350 10200
	1    0    0    -1  
$EndComp
Wire Wire Line
	2350 10050 2350 9900
Connection ~ 2350 9900
Wire Wire Line
	2350 9900 2300 9900
Wire Wire Line
	2350 10350 2350 10600
Connection ~ 2350 10600
Wire Wire Line
	2350 10600 3850 10600
$Comp
L Device:C C18
U 1 1 5DF4E5E5
P 4200 9250
F 0 "C18" V 4100 9350 50  0000 C CNN
F 1 "68n" V 4250 9400 50  0000 C CNN
F 2 "Capacitor_SMD:C_0603_1608Metric_Pad1.05x0.95mm_HandSolder" H 4238 9100 50  0001 C CNN
F 3 "~" H 4200 9250 50  0001 C CNN
F 4 "KEMET" H 4200 9250 50  0001 C CNN "MFN"
F 5 "C0603C683K4RACAUTO" H 4200 9250 50  0001 C CNN "MFP"
	1    4200 9250
	0    1    1    0   
$EndComp
$Comp
L Device:D_TVS D6
U 1 1 5DF4E5EF
P 4600 9050
F 0 "D6" H 4600 9266 50  0000 C CNN
F 1 "33V" H 4600 9175 50  0000 C CNN
F 2 "Diode_SMD:D_SOD-123F" H 4600 9050 50  0001 C CNN
F 3 "~" H 4600 9050 50  0001 C CNN
F 4 "Bourns" H 4600 9050 50  0001 C CNN "MFN"
F 5 "SMF4L33A-Q" H 4600 9050 50  0001 C CNN "MFP"
	1    4600 9050
	1    0    0    -1  
$EndComp
Wire Wire Line
	4750 9050 4950 9050
Wire Wire Line
	4950 9050 4950 9250
Wire Wire Line
	4350 9250 4600 9250
Connection ~ 4600 9250
Wire Wire Line
	4450 9050 3850 9050
Wire Wire Line
	3850 9050 3850 9250
Wire Wire Line
	4050 9250 3850 9250
Connection ~ 3850 9250
Wire Wire Line
	3850 9250 3850 9500
Wire Wire Line
	3850 9050 3850 8850
Connection ~ 3850 9050
Text Label 3850 8850 0    50   ~ 0
VIN
Wire Wire Line
	7200 6900 6700 6900
Wire Wire Line
	7200 7000 6700 7000
Wire Wire Line
	7200 7100 6700 7100
Text Label 6700 6900 0    50   ~ 0
AD1-2
Text Label 6700 7000 0    50   ~ 0
AD3-4
Text Label 6700 7100 0    50   ~ 0
AD5-6
NoConn ~ 7200 7200
Wire Wire Line
	7700 6450 7400 6450
Wire Wire Line
	7800 6450 7700 6450
Connection ~ 7700 6450
Text Label 7400 6450 0    50   ~ 0
5V
Wire Wire Line
	8400 6900 8900 6900
Wire Wire Line
	8400 7000 8900 7000
Wire Wire Line
	8400 7100 8900 7100
Wire Wire Line
	8400 7200 8900 7200
Text Label 8900 6900 2    50   ~ 0
SPI1_CLK
Text Label 8900 7000 2    50   ~ 0
SPI1_MISO
Text Label 8900 7100 2    50   ~ 0
SPI1_MOSI
Text Label 8900 7200 2    50   ~ 0
SPI1_CS
$Comp
L power:GND #PWR08
U 1 1 5E19B78E
P 7800 7700
F 0 "#PWR08" H 7800 7450 50  0001 C CNN
F 1 "GND" H 7805 7527 50  0000 C CNN
F 2 "" H 7800 7700 50  0001 C CNN
F 3 "" H 7800 7700 50  0001 C CNN
	1    7800 7700
	1    0    0    -1  
$EndComp
Wire Wire Line
	7700 7500 7700 7600
Wire Wire Line
	7700 7600 7800 7600
Wire Wire Line
	7800 7600 7800 7700
Wire Wire Line
	7800 7500 7800 7600
Connection ~ 7800 7600
Wire Wire Line
	7700 6600 7700 6450
Wire Wire Line
	7800 6600 7800 6450
Text Label 12400 7550 0    50   ~ 0
SPI1_CLK
Text Label 12400 7450 0    50   ~ 0
SPI1_MOSI
Text Label 12400 7350 0    50   ~ 0
SPI1_MISO
Text Label 12400 7150 0    50   ~ 0
SPI1_CS
Wire Wire Line
	12850 7550 12400 7550
Wire Wire Line
	12850 7450 12400 7450
Wire Wire Line
	12850 7350 12400 7350
Wire Wire Line
	12850 7150 12400 7150
$Comp
L Connector:Raspberry_Pi_2_3 J1
U 1 1 5DD90A27
P 13650 7550
F 0 "J1" H 13050 8850 50  0000 C CNN
F 1 "Raspberry_Pi_2_3" H 14250 8850 50  0000 C CNN
F 2 "Connector_PinSocket_2.54mm:PinSocket_2x20_P2.54mm_Vertical" H 13650 7550 50  0001 C CNN
F 3 "https://www.raspberrypi.org/documentation/hardware/raspberrypi/schematics/rpi_SCH_3bplus_1p0_reduced.pdf" H 13650 7550 50  0001 C CNN
F 4 "Adafruit" H 13650 7550 50  0001 C CNN "MFN"
F 5 "1992" H 13650 7550 50  0001 C CNN "MFP"
	1    13650 7550
	1    0    0    -1  
$EndComp
Wire Wire Line
	13450 8850 13450 9000
Wire Wire Line
	13850 6250 13850 5950
Wire Wire Line
	13450 6250 13450 5950
Wire Wire Line
	13550 8850 13550 9000
Wire Wire Line
	14450 7850 15000 7850
Wire Wire Line
	14450 7750 15000 7750
Wire Wire Line
	13650 8850 13650 9000
Wire Wire Line
	14450 6950 15000 6950
Wire Wire Line
	13750 8850 13750 9000
Wire Wire Line
	13850 8850 13850 9000
Wire Wire Line
	13950 8850 13950 9000
Wire Wire Line
	13550 6250 13550 5950
Wire Wire Line
	13250 8850 13250 9000
Wire Wire Line
	13350 8850 13350 9000
Text Label 15000 7850 2    50   ~ 0
GPS_T
Text Label 15000 7750 2    50   ~ 0
GPS_R
Text Label 15000 6950 2    50   ~ 0
SDA
Text Label 14150 5950 2    50   ~ 0
3V3
Wire Wire Line
	13850 5950 14150 5950
Text Label 13100 5950 0    50   ~ 0
V_RPI
Wire Wire Line
	13450 5950 13100 5950
Connection ~ 13450 5950
Wire Wire Line
	13550 5950 13450 5950
Connection ~ 13850 9000
Wire Wire Line
	13950 9000 13850 9000
Connection ~ 13750 9000
Wire Wire Line
	13850 9000 13750 9000
Connection ~ 13650 9000
Wire Wire Line
	13750 9000 13650 9000
Wire Wire Line
	13650 9000 13550 9000
Connection ~ 13550 9000
Wire Wire Line
	13450 9000 13550 9000
Connection ~ 13450 9000
Wire Wire Line
	13350 9000 13450 9000
Connection ~ 13350 9000
Wire Wire Line
	13550 9000 13550 9100
Wire Wire Line
	13250 9000 13350 9000
$Comp
L power:GND #PWR010
U 1 1 5DDCF5F1
P 13550 9100
F 0 "#PWR010" H 13550 8850 50  0001 C CNN
F 1 "GND" H 13555 8927 50  0000 C CNN
F 2 "" H 13550 9100 50  0001 C CNN
F 3 "" H 13550 9100 50  0001 C CNN
	1    13550 9100
	1    0    0    -1  
$EndComp
$Comp
L Connector:Barrel_Jack J2
U 1 1 5E285E8A
P 7550 8800
F 0 "J2" H 7607 9125 50  0000 C CNN
F 1 "Barrel_Jack" H 7607 9034 50  0000 C CNN
F 2 "astrohat:BarrelJack_Horizontal" H 7600 8760 50  0001 C CNN
F 3 "~" H 7600 8760 50  0001 C CNN
	1    7550 8800
	1    0    0    -1  
$EndComp
$Comp
L Connector:Barrel_Jack J4
U 1 1 5E289739
P 7550 9350
F 0 "J4" H 7607 9675 50  0000 C CNN
F 1 "Barrel_Jack" H 7607 9584 50  0000 C CNN
F 2 "astrohat:BarrelJack_Horizontal" H 7600 9310 50  0001 C CNN
F 3 "~" H 7600 9310 50  0001 C CNN
	1    7550 9350
	1    0    0    -1  
$EndComp
$Comp
L Connector:Barrel_Jack J6
U 1 1 5E29EAD4
P 7550 9900
F 0 "J6" H 7607 10225 50  0000 C CNN
F 1 "Barrel_Jack" H 7607 10134 50  0000 C CNN
F 2 "astrohat:BarrelJack_Horizontal" H 7600 9860 50  0001 C CNN
F 3 "~" H 7600 9860 50  0001 C CNN
	1    7550 9900
	1    0    0    -1  
$EndComp
$Comp
L Connector:Barrel_Jack J8
U 1 1 5E2B4334
P 7550 10450
F 0 "J8" H 7607 10775 50  0000 C CNN
F 1 "Barrel_Jack" H 7607 10684 50  0000 C CNN
F 2 "astrohat:BarrelJack_Horizontal" H 7600 10410 50  0001 C CNN
F 3 "~" H 7600 10410 50  0001 C CNN
	1    7550 10450
	1    0    0    -1  
$EndComp
$Comp
L Connector:Barrel_Jack J7
U 1 1 5E2F417B
P 9550 10450
F 0 "J7" H 9607 10775 50  0000 C CNN
F 1 "Barrel_Jack" H 9607 10684 50  0000 C CNN
F 2 "astrohat:BarrelJack_Horizontal" H 9600 10410 50  0001 C CNN
F 3 "~" H 9600 10410 50  0001 C CNN
	1    9550 10450
	1    0    0    -1  
$EndComp
Text Label 8050 8700 0    50   ~ 0
V_CH1
Text Label 8050 8900 0    50   ~ 0
GND
$Comp
L power:GND #PWR013
U 1 1 5E321DF0
P 10900 10200
F 0 "#PWR013" H 10900 9950 50  0001 C CNN
F 1 "GND" H 10905 10027 50  0000 C CNN
F 2 "" H 10900 10200 50  0001 C CNN
F 3 "" H 10900 10200 50  0001 C CNN
	1    10900 10200
	1    0    0    -1  
$EndComp
Wire Wire Line
	10900 10200 10900 10100
Wire Wire Line
	10900 10100 11050 10100
Text Label 11050 10100 2    50   ~ 0
GND
Text Label 8050 9250 0    50   ~ 0
V_CH2
Text Label 8050 9450 0    50   ~ 0
GND
Text Label 8050 9800 0    50   ~ 0
V_CH3
Text Label 8050 10000 0    50   ~ 0
GND
Text Label 8050 10350 0    50   ~ 0
V_CH4
Text Label 8050 10550 0    50   ~ 0
GND
Text Label 10150 8850 0    50   ~ 0
V_CH5
Text Label 9450 8850 2    50   ~ 0
GND
Text Label 10050 10350 0    50   ~ 0
VIN
Text Label 10050 10550 0    50   ~ 0
GND
Wire Wire Line
	7850 8700 8050 8700
Wire Wire Line
	7850 8900 8050 8900
Wire Wire Line
	7850 9250 8050 9250
Wire Wire Line
	7850 9450 8050 9450
Wire Wire Line
	7850 9800 8050 9800
Wire Wire Line
	7850 10000 8050 10000
Wire Wire Line
	7850 10350 8050 10350
Wire Wire Line
	7850 10550 8050 10550
Wire Wire Line
	9950 8850 10150 8850
Wire Wire Line
	9650 8850 9450 8850
Wire Wire Line
	9850 10350 10050 10350
Wire Wire Line
	9850 10550 10050 10550
$Comp
L Connector:Conn_Coaxial_Power J3
U 1 1 5E554D6E
P 9850 8850
F 0 "J3" V 9633 8800 50  0000 C CNN
F 1 "Conn_Coaxial_Power" V 9724 8800 50  0000 C CNN
F 2 "astrohat:rca_black" H 9850 8800 50  0001 C CNN
F 3 "~" H 9850 8800 50  0001 C CNN
F 4 "Switchcraft" H 9850 8850 50  0001 C CNN "MFN"
F 5 "PJRAN1X1U03AUX" H 9850 8850 50  0001 C CNN "MFP"
	1    9850 8850
	0    1    1    0   
$EndComp
Text Label 10150 9300 0    50   ~ 0
V_CH6
Text Label 9450 9300 2    50   ~ 0
GND
Wire Wire Line
	9950 9300 10150 9300
Wire Wire Line
	9650 9300 9450 9300
$Comp
L Connector:Conn_Coaxial_Power J5
U 1 1 5E586C3E
P 9850 9300
F 0 "J5" V 9633 9250 50  0000 C CNN
F 1 "Conn_Coaxial_Power" V 9724 9250 50  0000 C CNN
F 2 "astrohat:rca_black" H 9850 9250 50  0001 C CNN
F 3 "~" H 9850 9250 50  0001 C CNN
F 4 "Switchcraft" H 9850 9300 50  0001 C CNN "MFN"
F 5 "PJRAN1X1U03AUX" H 9850 9300 50  0001 C CNN "MFP"
	1    9850 9300
	0    1    1    0   
$EndComp
$Comp
L Connector:Barrel_Jack J9
U 1 1 5E5FFA6E
P 9550 9800
F 0 "J9" H 9607 10125 50  0000 C CNN
F 1 "Barrel_Jack" H 9607 10034 50  0000 C CNN
F 2 "astrohat:BarrelJack_Horizontal" H 9600 9760 50  0001 C CNN
F 3 "~" H 9600 9760 50  0001 C CNN
	1    9550 9800
	1    0    0    -1  
$EndComp
Text Label 10050 9700 0    50   ~ 0
V_ADJ
Text Label 10050 9900 0    50   ~ 0
GND
Wire Wire Line
	9850 9700 10050 9700
Wire Wire Line
	9850 9900 10050 9900
$Comp
L Regulator_Linear:MIC29302WU U9
U 1 1 5E664FF9
P 7800 4400
F 0 "U9" H 7800 4767 50  0000 C CNN
F 1 "MIC29302WU" H 7800 4676 50  0000 C CNN
F 2 "Package_TO_SOT_SMD:TO-263-5_TabPin3" H 7900 4150 50  0001 L CNN
F 3 "http://ww1.microchip.com/downloads/en/devicedoc/20005685a.pdf" H 7800 4400 50  0001 C CNN
F 4 "Microchip Technology" H 7800 4400 50  0001 C CNN "MFN"
F 5 "MIC29302WU" H 7800 4400 50  0001 C CNN "MFP"
	1    7800 4400
	1    0    0    -1  
$EndComp
$Comp
L power:GND #PWR0101
U 1 1 5E666829
P 7800 4900
F 0 "#PWR0101" H 7800 4650 50  0001 C CNN
F 1 "GND" H 7805 4727 50  0000 C CNN
F 2 "" H 7800 4900 50  0001 C CNN
F 3 "" H 7800 4900 50  0001 C CNN
	1    7800 4900
	1    0    0    -1  
$EndComp
Wire Wire Line
	7800 4900 7800 4800
$Comp
L Device:C C23
U 1 1 5E67FC79
P 6900 4450
F 0 "C23" H 6700 4500 50  0000 L CNN
F 1 "10u" H 6700 4400 50  0000 L CNN
F 2 "Capacitor_SMD:C_0603_1608Metric_Pad1.05x0.95mm_HandSolder" H 6938 4300 50  0001 C CNN
F 3 "~" H 6900 4450 50  0001 C CNN
F 4 "MuRata" H 6900 4450 50  0001 C CNN "MFN"
F 5 "GRT188R61E106ME13D" H 6900 4450 50  0001 C CNN "MFP"
	1    6900 4450
	1    0    0    -1  
$EndComp
Wire Wire Line
	6500 4300 6900 4300
Wire Wire Line
	6900 4300 7400 4300
Connection ~ 6900 4300
Text Label 6500 4300 0    50   ~ 0
VIN
Wire Wire Line
	6900 4800 7800 4800
Connection ~ 7800 4800
Wire Wire Line
	7800 4800 7800 4700
$Comp
L Device:C C24
U 1 1 5E6CDE93
P 8900 4450
F 0 "C24" H 9015 4496 50  0000 L CNN
F 1 "22u" H 9015 4405 50  0000 L CNN
F 2 "Capacitor_SMD:C_1210_3225Metric_Pad1.42x2.65mm_HandSolder" H 8938 4300 50  0001 C CNN
F 3 "~" H 8900 4450 50  0001 C CNN
F 4 "Taiyo Yuden" H 8900 4450 50  0001 C CNN "MFN"
F 5 "TMK325B7226KM-PR" H 8900 4450 50  0001 C CNN "MFP"
	1    8900 4450
	1    0    0    -1  
$EndComp
Wire Wire Line
	8200 4300 8900 4300
Wire Wire Line
	8900 4300 9300 4300
Connection ~ 8900 4300
Wire Wire Line
	8900 4600 8900 4800
Wire Wire Line
	8900 4800 8400 4800
Text Label 9300 4300 2    50   ~ 0
V_ADJ
$Comp
L Device:R R37
U 1 1 5E71E9D8
P 8400 4650
F 0 "R37" H 8470 4696 50  0000 L CNN
F 1 "1k" H 8470 4605 50  0000 L CNN
F 2 "Resistor_SMD:R_0603_1608Metric_Pad1.05x0.95mm_HandSolder" V 8330 4650 50  0001 C CNN
F 3 "~" H 8400 4650 50  0001 C CNN
F 4 "Panasonic" H 8400 4650 50  0001 C CNN "MFN"
F 5 "ERJ-3EKF1001V" H 8400 4650 50  0001 C CNN "MFP"
	1    8400 4650
	1    0    0    -1  
$EndComp
Connection ~ 8400 4800
Wire Wire Line
	8400 4800 7800 4800
Wire Wire Line
	8200 4500 8400 4500
Text Label 8400 4500 2    50   ~ 0
ADJ
Wire Wire Line
	6900 4600 6900 4800
Wire Wire Line
	7400 4500 7100 4500
Text Label 7100 4500 0    50   ~ 0
EN_ADJ
Text Label 12400 6950 0    50   ~ 0
EN_ADJ
Wire Wire Line
	12400 6950 12850 6950
$Comp
L Potentiometer_Digital:MCP41010 U8
U 1 1 5E7AA48D
P 7750 3150
F 0 "U8" H 7550 3550 50  0000 C CNN
F 1 "MCP41010" H 8000 3500 50  0000 C CNN
F 2 "Package_SO:SOIC-8_3.9x4.9mm_P1.27mm" H 7750 3150 50  0001 C CNN
F 3 "http://ww1.microchip.com/downloads/en/DeviceDoc/11195c.pdf" H 7750 3150 50  0001 C CNN
F 4 "Microchip Technology" H 7750 3150 50  0001 C CNN "MFN"
F 5 "MCP41010T-I/SN" H 7750 3150 50  0001 C CNN "MFP"
	1    7750 3150
	1    0    0    -1  
$EndComp
$Comp
L Device:C C22
U 1 1 5E7AB689
P 8000 2600
F 0 "C22" V 8252 2600 50  0000 C CNN
F 1 "10u" V 8161 2600 50  0000 C CNN
F 2 "Capacitor_SMD:C_0603_1608Metric_Pad1.05x0.95mm_HandSolder" H 8038 2450 50  0001 C CNN
F 3 "~" H 8000 2600 50  0001 C CNN
F 4 "MuRata" H 8000 2600 50  0001 C CNN "MFN"
F 5 "GRT188R61E106ME13D" H 8000 2600 50  0001 C CNN "MFP"
	1    8000 2600
	0    -1   -1   0   
$EndComp
$Comp
L power:GND #PWR0102
U 1 1 5E7AD541
P 8150 2600
F 0 "#PWR0102" H 8150 2350 50  0001 C CNN
F 1 "GND" V 8155 2472 50  0000 R CNN
F 2 "" H 8150 2600 50  0001 C CNN
F 3 "" H 8150 2600 50  0001 C CNN
	1    8150 2600
	0    -1   -1   0   
$EndComp
Wire Wire Line
	7750 2750 7750 2600
Wire Wire Line
	7750 2600 7850 2600
Wire Wire Line
	7750 2600 7400 2600
Connection ~ 7750 2600
Text Label 7400 2600 0    50   ~ 0
5V
Wire Wire Line
	8150 3050 8350 3050
Wire Wire Line
	8150 3150 8350 3150
Wire Wire Line
	8350 3150 8350 3050
Connection ~ 8350 3050
Wire Wire Line
	8350 3050 8650 3050
Wire Wire Line
	8150 3250 8650 3250
Text Label 8650 3050 2    50   ~ 0
V_ADJ
Text Label 8650 3250 2    50   ~ 0
ADJ
$Comp
L power:GND #PWR0103
U 1 1 5E857D3B
P 7750 3550
F 0 "#PWR0103" H 7750 3300 50  0001 C CNN
F 1 "GND" H 7755 3377 50  0000 C CNN
F 2 "" H 7750 3550 50  0001 C CNN
F 3 "" H 7750 3550 50  0001 C CNN
	1    7750 3550
	1    0    0    -1  
$EndComp
Wire Wire Line
	14450 7250 15000 7250
Wire Wire Line
	14450 7350 15000 7350
Wire Wire Line
	14450 7450 15000 7450
Wire Wire Line
	14450 7650 15000 7650
Text Label 15000 7250 2    50   ~ 0
SPI2_CS
Text Label 15000 7450 2    50   ~ 0
SPI2_MOSI
Text Label 15000 7650 2    50   ~ 0
SPI2_CLK
Wire Wire Line
	7350 3050 6800 3050
Wire Wire Line
	7350 3150 6800 3150
Wire Wire Line
	7350 3250 6800 3250
Text Label 6800 3050 0    50   ~ 0
SPI2_CLK
Text Label 6800 3150 0    50   ~ 0
SPI2_MOSI
Text Label 6800 3250 0    50   ~ 0
SPI2_CS
$Comp
L power:PWR_FLAG #FLG0101
U 1 1 5EBFA823
P 10900 10100
F 0 "#FLG0101" H 10900 10175 50  0001 C CNN
F 1 "PWR_FLAG" V 10900 10227 50  0000 L CNN
F 2 "" H 10900 10100 50  0001 C CNN
F 3 "~" H 10900 10100 50  0001 C CNN
	1    10900 10100
	0    -1   -1   0   
$EndComp
Connection ~ 10900 10100
Wire Wire Line
	12850 7750 12400 7750
Wire Wire Line
	12400 7850 12850 7850
Wire Wire Line
	12400 7950 12850 7950
Wire Wire Line
	12400 8050 12850 8050
Wire Wire Line
	12400 8150 12850 8150
Wire Wire Line
	12850 8250 12400 8250
Text Label 12400 7850 0    50   ~ 0
CH1
Text Label 12400 7750 0    50   ~ 0
CH2
Text Label 12400 8050 0    50   ~ 0
CH3
Text Label 12400 7950 0    50   ~ 0
CH4
Text Label 12400 7050 0    50   ~ 0
CH6
Wire Wire Line
	12850 6650 12400 6650
Wire Wire Line
	12850 6750 12400 6750
Wire Wire Line
	14450 7950 15000 7950
Wire Wire Line
	14450 8050 15000 8050
Wire Wire Line
	14450 8250 15000 8250
Wire Wire Line
	14450 8350 15000 8350
Text Label 15000 7950 2    50   ~ 0
DEN1-2
Text Label 15000 8050 2    50   ~ 0
DSEL1-2
Text Label 12400 8150 0    50   ~ 0
DSEL3-4
Text Label 12400 6650 0    50   ~ 0
DEN5-6
Text Label 12400 6750 0    50   ~ 0
DSEL5-6
$Comp
L power:PWR_FLAG #FLG0103
U 1 1 5EDF2CB6
P 3800 5350
F 0 "#FLG0103" H 3800 5425 50  0001 C CNN
F 1 "PWR_FLAG" V 3800 5477 50  0000 L CNN
F 2 "" H 3800 5350 50  0001 C CNN
F 3 "~" H 3800 5350 50  0001 C CNN
	1    3800 5350
	0    -1   -1   0   
$EndComp
Connection ~ 3800 5350
$Comp
L power:PWR_FLAG #FLG0104
U 1 1 5EDF39FF
P 3850 7800
F 0 "#FLG0104" H 3850 7875 50  0001 C CNN
F 1 "PWR_FLAG" V 3850 7927 50  0000 L CNN
F 2 "" H 3850 7800 50  0001 C CNN
F 3 "~" H 3850 7800 50  0001 C CNN
	1    3850 7800
	0    -1   -1   0   
$EndComp
Connection ~ 3850 7800
$Comp
L power:PWR_FLAG #FLG0105
U 1 1 5EDF44FE
P 3850 10300
F 0 "#FLG0105" H 3850 10375 50  0001 C CNN
F 1 "PWR_FLAG" V 3850 10427 50  0000 L CNN
F 2 "" H 3850 10300 50  0001 C CNN
F 3 "~" H 3850 10300 50  0001 C CNN
	1    3850 10300
	0    -1   -1   0   
$EndComp
Connection ~ 3850 10300
$Comp
L power:PWR_FLAG #FLG0106
U 1 1 5EDF5A76
P 13450 5950
F 0 "#FLG0106" H 13450 6025 50  0001 C CNN
F 1 "PWR_FLAG" H 13450 6123 50  0000 C CNN
F 2 "" H 13450 5950 50  0001 C CNN
F 3 "~" H 13450 5950 50  0001 C CNN
	1    13450 5950
	1    0    0    -1  
$EndComp
Text Label 15000 7350 2    50   ~ 0
SPI2_MISO
$Comp
L power:PWR_FLAG #FLG0107
U 1 1 5EE36623
P 1200 1200
F 0 "#FLG0107" H 1200 1275 50  0001 C CNN
F 1 "PWR_FLAG" H 1200 1373 50  0000 C CNN
F 2 "" H 1200 1200 50  0001 C CNN
F 3 "~" H 1200 1200 50  0001 C CNN
	1    1200 1200
	1    0    0    -1  
$EndComp
$Comp
L Device:C C17
U 1 1 5DF369BF
P 1350 7700
F 0 "C17" H 1465 7746 50  0000 L CNN
F 1 "220p" H 1465 7655 50  0000 L CNN
F 2 "Capacitor_SMD:C_0603_1608Metric_Pad1.05x0.95mm_HandSolder" H 1388 7550 50  0001 C CNN
F 3 "~" H 1350 7700 50  0001 C CNN
F 4 "KEMET" H 1350 7700 50  0001 C CNN "MFN"
F 5 "C0603Y221K1RACAUTO " H 1350 7700 50  0001 C CNN "MFP"
	1    1350 7700
	1    0    0    -1  
$EndComp
Wire Wire Line
	2750 1400 3950 1400
Wire Wire Line
	2750 1200 3000 1200
Wire Wire Line
	3300 1200 3950 1200
Wire Wire Line
	3950 1200 3950 1400
$Comp
L Connector:AudioJack3 J10
U 1 1 5DE7B61E
P 9650 8150
F 0 "J10" H 9632 8475 50  0000 C CNN
F 1 "AudioJack3" H 9632 8384 50  0000 C CNN
F 2 "astrohat:CUI_SJ-2523-SMT-TR" H 9650 8150 50  0001 C CNN
F 3 "~" H 9650 8150 50  0001 C CNN
F 4 "CUI Devices" H 9650 8150 50  0001 C CNN "MFN"
F 5 "SJ-2523-SMT-TR" H 9650 8150 50  0001 C CNN "MFP"
	1    9650 8150
	1    0    0    -1  
$EndComp
Wire Wire Line
	9850 8250 10500 8250
Wire Wire Line
	9850 8150 10500 8150
Wire Wire Line
	9850 8050 10500 8050
Text Label 10500 8250 2    50   ~ 0
5V
Text Label 10500 8050 2    50   ~ 0
GND
Text Label 10500 8150 2    50   ~ 0
SDA
Text Label 3650 1400 0    50   ~ 0
SW
$Comp
L Connector:Conn_01x04_Male J11
U 1 1 5E063B25
P 9600 7350
F 0 "J11" H 9708 7631 50  0000 C CNN
F 1 "Conn_01x03_Male" H 9708 7540 50  0000 C CNN
F 2 "Connector_JST:JST_XH_S4B-XH-A-1_1x04_P2.50mm_Horizontal" H 9600 7350 50  0001 C CNN
F 3 "~" H 9600 7350 50  0001 C CNN
	1    9600 7350
	1    0    0    -1  
$EndComp
Wire Wire Line
	9800 7250 10350 7250
Wire Wire Line
	9800 7350 10350 7350
Wire Wire Line
	9800 7450 10350 7450
Text Label 10350 7450 2    50   ~ 0
5V
Text Label 10350 7550 2    50   ~ 0
GND
Text Label 10350 7250 2    50   ~ 0
GPS_T
Wire Wire Line
	14450 7050 15000 7050
Text Label 15000 7050 2    50   ~ 0
SCL
NoConn ~ 13750 6250
Text Label 12400 8250 0    50   ~ 0
CH5
Text Label 15000 8250 2    50   ~ 0
DEN3-4
$Comp
L Connector:Conn_01x02_Male J12
U 1 1 5DE34D55
P 9600 6700
F 0 "J12" H 9708 6881 50  0000 C CNN
F 1 "Conn_01x02_Male" H 9708 6790 50  0000 C CNN
F 2 "Connector_JST:JST_XH_S2B-XH-A_1x02_P2.50mm_Horizontal" H 9600 6700 50  0001 C CNN
F 3 "~" H 9600 6700 50  0001 C CNN
	1    9600 6700
	1    0    0    -1  
$EndComp
Wire Wire Line
	9800 6700 10350 6700
Wire Wire Line
	9800 6800 10350 6800
Text Label 10350 6700 2    50   ~ 0
V_RPI
Text Label 10350 6800 2    50   ~ 0
GND
$Comp
L power:PWR_FLAG #FLG0108
U 1 1 5DE9BF37
P 13850 5950
F 0 "#FLG0108" H 13850 6025 50  0001 C CNN
F 1 "PWR_FLAG" H 13850 6123 50  0000 C CNN
F 2 "" H 13850 5950 50  0001 C CNN
F 3 "~" H 13850 5950 50  0001 C CNN
	1    13850 5950
	1    0    0    -1  
$EndComp
Connection ~ 13850 5950
NoConn ~ 15000 7350
Wire Wire Line
	12850 7050 12400 7050
NoConn ~ 15000 8350
Wire Wire Line
	9800 7550 10350 7550
Text Label 10350 7350 2    50   ~ 0
GPS_R
$Comp
L astrohat:CAT24C32WI-GT3 U2
U 1 1 5E263158
P 13950 2600
F 0 "U2" H 14200 2850 50  0000 C CNN
F 1 "CAT24C32WI-GT3" H 13950 2100 50  0000 C CNN
F 2 "Package_SO:SOIC-8_3.9x4.9mm_P1.27mm" H 13950 2600 50  0001 C CNN
F 3 "http://ww1.microchip.com/downloads/en/DeviceDoc/21703d.pdf" H 13950 2600 50  0001 C CNN
F 4 "ON Semiconductor" H 13950 2600 50  0001 C CNN "MFN"
F 5 "CAT24C32WI-GT3" H 13950 2600 50  0001 C CNN "MFP"
	1    13950 2600
	1    0    0    -1  
$EndComp
$Comp
L power:GND #PWR01
U 1 1 5E26476F
P 13400 3100
F 0 "#PWR01" H 13400 2850 50  0001 C CNN
F 1 "GND" H 13405 2927 50  0000 C CNN
F 2 "" H 13400 3100 50  0001 C CNN
F 3 "" H 13400 3100 50  0001 C CNN
	1    13400 3100
	1    0    0    -1  
$EndComp
Wire Wire Line
	13550 2500 13400 2500
Wire Wire Line
	13550 2600 13400 2600
Wire Wire Line
	13400 2500 13400 2600
Connection ~ 13400 2600
Wire Wire Line
	13400 2600 13400 2700
Wire Wire Line
	13550 2700 13400 2700
Connection ~ 13400 2700
Wire Wire Line
	13400 2700 13400 2900
Wire Wire Line
	13400 2900 13950 2900
Connection ~ 13400 2900
Wire Wire Line
	13400 2900 13400 3000
Wire Wire Line
	14350 2600 14850 2600
Wire Wire Line
	14350 2500 15100 2500
Text Label 15400 2500 2    50   ~ 0
ID_SD
Text Label 15400 2600 2    50   ~ 0
ID_SC
$Comp
L Connector:Conn_01x02_Male J13
U 1 1 5E34CB8E
P 14800 3000
F 0 "J13" H 14772 2882 50  0000 R CNN
F 1 "Conn_01x02_Male" H 14772 2973 50  0000 R CNN
F 2 "Connector_PinHeader_2.54mm:PinHeader_1x02_P2.54mm_Vertical" H 14800 3000 50  0001 C CNN
F 3 "~" H 14800 3000 50  0001 C CNN
	1    14800 3000
	-1   0    0    1   
$EndComp
Wire Wire Line
	14600 3000 13400 3000
Connection ~ 13400 3000
Wire Wire Line
	13400 3000 13400 3100
Wire Wire Line
	14350 2700 14600 2700
Wire Wire Line
	14600 2700 14600 2900
$Comp
L Device:R R5
U 1 1 5E389DA8
P 14600 2150
F 0 "R5" H 14670 2196 50  0000 L CNN
F 1 "1k" H 14670 2105 50  0000 L CNN
F 2 "Resistor_SMD:R_0603_1608Metric_Pad1.05x0.95mm_HandSolder" V 14530 2150 50  0001 C CNN
F 3 "~" H 14600 2150 50  0001 C CNN
F 4 "Panasonic" H 14600 2150 50  0001 C CNN "MFN"
F 5 "ERJ-3EKF1001V" H 14600 2150 50  0001 C CNN "MFP"
	1    14600 2150
	1    0    0    -1  
$EndComp
$Comp
L Device:R R6
U 1 1 5E38AA16
P 14850 2150
F 0 "R6" H 14920 2196 50  0000 L CNN
F 1 "3.9k" H 14920 2105 50  0000 L CNN
F 2 "Resistor_SMD:R_0603_1608Metric_Pad1.05x0.95mm_HandSolder" V 14780 2150 50  0001 C CNN
F 3 "~" H 14850 2150 50  0001 C CNN
F 4 "Panasonic" H 14850 2150 50  0001 C CNN "MFN"
F 5 "ERJ-3EKF3901V" H 14850 2150 50  0001 C CNN "MFP"
	1    14850 2150
	1    0    0    -1  
$EndComp
$Comp
L Device:R R38
U 1 1 5E38B5C2
P 15100 2150
F 0 "R38" H 15170 2196 50  0000 L CNN
F 1 "3.9k" H 15170 2105 50  0000 L CNN
F 2 "Resistor_SMD:R_0603_1608Metric_Pad1.05x0.95mm_HandSolder" V 15030 2150 50  0001 C CNN
F 3 "~" H 15100 2150 50  0001 C CNN
F 4 "Panasonic" H 15100 2150 50  0001 C CNN "MFN"
F 5 "ERJ-3EKF3901V" H 15100 2150 50  0001 C CNN "MFP"
	1    15100 2150
	1    0    0    -1  
$EndComp
Wire Wire Line
	14600 2700 14600 2300
Connection ~ 14600 2700
Wire Wire Line
	14850 2600 14850 2300
Connection ~ 14850 2600
Wire Wire Line
	14850 2600 15400 2600
Wire Wire Line
	15100 2500 15100 2300
Connection ~ 15100 2500
Wire Wire Line
	15100 2500 15400 2500
Wire Wire Line
	13950 2300 13950 2100
Wire Wire Line
	14600 2000 14600 1850
Wire Wire Line
	14600 1850 13950 1850
Connection ~ 13950 1850
Wire Wire Line
	13950 1850 13950 1650
Wire Wire Line
	14600 1850 14850 1850
Wire Wire Line
	14850 1850 14850 2000
Connection ~ 14600 1850
Wire Wire Line
	14850 1850 15100 1850
Wire Wire Line
	15100 1850 15100 2000
Connection ~ 14850 1850
$Comp
L Device:C C6
U 1 1 5E461F89
P 13650 2100
F 0 "C6" V 13398 2100 50  0000 C CNN
F 1 "100n" V 13489 2100 50  0000 C CNN
F 2 "Capacitor_SMD:C_0603_1608Metric_Pad1.05x0.95mm_HandSolder" H 13688 1950 50  0001 C CNN
F 3 "~" H 13650 2100 50  0001 C CNN
F 4 "KEMET" H 13650 2100 50  0001 C CNN "MFN"
F 5 "C0603X104J5RECAUTO" H 13650 2100 50  0001 C CNN "MFP"
	1    13650 2100
	0    1    1    0   
$EndComp
Wire Wire Line
	13500 2100 13400 2100
Wire Wire Line
	13400 2100 13400 2500
Connection ~ 13400 2500
Wire Wire Line
	13800 2100 13950 2100
Connection ~ 13950 2100
Wire Wire Line
	13950 2100 13950 1850
Wire Wire Line
	14450 6650 15000 6650
Wire Wire Line
	14450 6750 15000 6750
Text Label 15000 6650 2    50   ~ 0
ID_SD
Text Label 15000 6750 2    50   ~ 0
ID_SC
Text Label 13950 1650 0    50   ~ 0
3V3
Text Label 6350 1400 2    50   ~ 0
5V
$Comp
L astrohat:DMG2305UX Q1
U 1 1 5E229959
P 11100 1800
F 0 "Q1" V 11442 1800 50  0000 C CNN
F 1 "DMG2305UX" V 11351 1800 50  0000 C CNN
F 2 "Package_TO_SOT_SMD:SOT-23" H 11300 1725 50  0001 L CIN
F 3 "https://www.diodes.com/assets/Datasheets/DMG2305UX.pdf" H 11100 1800 50  0001 L CNN
F 4 "Diodes Incorporated" H 11100 1800 50  0001 C CNN "MFN"
F 5 "DMG2305UXQ-7" H 11100 1800 50  0001 C CNN "MFP"
	1    11100 1800
	0    -1   -1   0   
$EndComp
$Comp
L astrohat:DMMT5401 U3
U 1 1 5E22BB97
P 11100 2500
F 0 "U3" V 11146 2172 50  0000 R CNN
F 1 "DMMT5401" V 11055 2172 50  0000 R CNN
F 2 "Package_SO:SC-74-6_1.5x2.9mm_P0.95mm" H 11100 2500 50  0001 C CNN
F 3 "https://www.diodes.com/assets/Datasheets/ds30437.pdf" H 11100 2500 50  0001 C CNN
F 4 "Diodes Incorporated" H 11100 2500 50  0001 C CNN "MFN"
F 5 "DMMT5401-7-F" H 11100 2500 50  0001 C CNN "MFP"
	1    11100 2500
	0    -1   -1   0   
$EndComp
Wire Wire Line
	10250 2100 10650 2100
Wire Wire Line
	10900 2100 10900 2200
Wire Wire Line
	10650 2100 10650 1700
Wire Wire Line
	10650 1700 10900 1700
Connection ~ 10650 2100
Wire Wire Line
	10650 2100 10900 2100
Wire Wire Line
	11350 2200 11350 2100
Wire Wire Line
	11350 2100 11600 2100
Wire Wire Line
	11300 1700 11600 1700
Wire Wire Line
	11600 1700 11600 2100
Connection ~ 11600 2100
Wire Wire Line
	11600 2100 11950 2100
Wire Wire Line
	10900 2800 10900 2900
Wire Wire Line
	10900 2900 11050 2900
Wire Wire Line
	11050 2900 11050 2800
Connection ~ 10900 2900
Wire Wire Line
	10900 2900 10900 3050
$Comp
L Device:R R39
U 1 1 5E31902C
P 10900 3200
F 0 "R39" H 10970 3246 50  0000 L CNN
F 1 "10k" H 10970 3155 50  0000 L CNN
F 2 "Resistor_SMD:R_0603_1608Metric_Pad1.05x0.95mm_HandSolder" V 10830 3200 50  0001 C CNN
F 3 "~" H 10900 3200 50  0001 C CNN
F 4 "Panasonic" H 10900 3200 50  0001 C CNN "MFN"
F 5 "ERJ-3EKF1002V" H 10900 3200 50  0001 C CNN "MFP"
	1    10900 3200
	1    0    0    -1  
$EndComp
Wire Wire Line
	11050 2900 11200 2900
Wire Wire Line
	11200 2900 11200 2800
Connection ~ 11050 2900
$Comp
L power:GND #PWR03
U 1 1 5E33D536
P 10900 3350
F 0 "#PWR03" H 10900 3100 50  0001 C CNN
F 1 "GND" H 10905 3177 50  0000 C CNN
F 2 "" H 10900 3350 50  0001 C CNN
F 3 "" H 10900 3350 50  0001 C CNN
	1    10900 3350
	1    0    0    -1  
$EndComp
$Comp
L Device:R R40
U 1 1 5E33DFBF
P 11350 3200
F 0 "R40" H 11420 3246 50  0000 L CNN
F 1 "47k" H 11420 3155 50  0000 L CNN
F 2 "Resistor_SMD:R_0603_1608Metric_Pad1.05x0.95mm_HandSolder" V 11280 3200 50  0001 C CNN
F 3 "~" H 11350 3200 50  0001 C CNN
F 4 "Panasonic" H 11350 3200 50  0001 C CNN "MFN"
F 5 "ERJ-3EKF4702V" H 11350 3200 50  0001 C CNN "MFP"
	1    11350 3200
	1    0    0    -1  
$EndComp
$Comp
L power:GND #PWR04
U 1 1 5E33EBB2
P 11350 3350
F 0 "#PWR04" H 11350 3100 50  0001 C CNN
F 1 "GND" H 11355 3177 50  0000 C CNN
F 2 "" H 11350 3350 50  0001 C CNN
F 3 "" H 11350 3350 50  0001 C CNN
	1    11350 3350
	1    0    0    -1  
$EndComp
Wire Wire Line
	11350 3050 11350 2950
Wire Wire Line
	11100 2000 11100 2950
Wire Wire Line
	11100 2950 11350 2950
Connection ~ 11350 2950
Wire Wire Line
	11350 2950 11350 2800
Text Label 10250 2100 0    50   ~ 0
5V
Text Notes 3600 1050 0    50   ~ 0
Power Supply
Text Notes 10200 1450 0    50   ~ 0
Backpowering\nRPi protection
Text Notes 6800 2350 0    50   ~ 0
Voltage Adjustment
Text Notes 6850 4000 0    50   ~ 0
Variable Power
Text Notes 6750 6350 0    50   ~ 0
ADC for Power Lines\nMonitoring
Text Notes 14400 1450 0    50   ~ 0
ID EEPROM
NoConn ~ 14450 7050
$EndSCHEMATC
