Reference, Quantity, Value, Footprint, Datasheet, MFN, MFP
C1 ,1,"100n","Capacitor_SMD:C_0805_2012Metric_Pad1.15x1.40mm_HandSolder","~","KEMET","C0805C104K4RACTU "
C10 C14 C18 ,3,"68n","Capacitor_SMD:C_0603_1608Metric_Pad1.05x0.95mm_HandSolder","~","KEMET","C0603C683K4RACAUTO"
C11 C12 C15 C16 C19 C20 ,6,"10n","Capacitor_SMD:C_0603_1608Metric_Pad1.05x0.95mm_HandSolder","~","MuRata","GCM188R72A103KA37D"
C13 C21 C17 ,3,"220p","Capacitor_SMD:C_0603_1608Metric_Pad1.05x0.95mm_HandSolder","~","KEMET","C0603Y221K1RACAUTO "
C2 ,1,"4.7u","Capacitor_SMD:C_1206_3216Metric_Pad1.42x1.75mm_HandSolder","~","MuRata","GRM31CR71H475KA12L"
C23 C22 ,2,"10u","Capacitor_SMD:C_0603_1608Metric_Pad1.05x0.95mm_HandSolder","~","MuRata","GRT188R61E106ME13D"
C24 ,1,"22u","Capacitor_SMD:C_1210_3225Metric_Pad1.42x2.65mm_HandSolder","~","Taiyo Yuden","TMK325B7226KM-TR"
C3 C4 C5 ,3,"47u","Capacitor_SMD:C_1206_3216Metric_Pad1.42x1.75mm_HandSolder","~","Taiyo Yuden","EMK316BBJ476ML-T"
C6 ,1,"100n","Capacitor_SMD:C_0603_1608Metric_Pad1.05x0.95mm_HandSolder","~","KEMET","C0603X104J5RECAUTO"
C7 ,1,"68p","Capacitor_SMD:C_0603_1608Metric_Pad1.05x0.95mm_HandSolder","~","MuRata","GRM1885C1H680JA01D"
C8 ,1,"820p","Capacitor_SMD:C_0805_2012Metric_Pad1.15x1.40mm_HandSolder","~","MuRata","GRM2165C2A821JA01D"
D1 ,1,"60V","Diode_SMD:D_SMC","~","Diodes Inc.","B560C-13-F"
D2 D4 D6 ,3,"33V","Diode_SMD:D_SOD-123F","~","Bourns","SMF4L33A-Q"
D3 D5 D7 ,3,"7V","Diode_SMD:D_SOD-123F","~","Nexperia","BZT52H-B6V8,115"
J1 ,1,"Raspberry_Pi_2_3","Connector_PinSocket_2.54mm:PinSocket_2x20_P2.54mm_Vertical","https://www.raspberrypi.org/documentation/hardware/raspberrypi/schematics/rpi_SCH_3bplus_1p0_reduced.pdf","Adafruit","1992"
J10 ,1,"AudioJack3","astrohat:CUI_SJ-2523-SMT-TR","~","CUI Devices","SJ-2523-SMT-TR"
J11 ,1,"Conn_01x03_Male","Connector_JST:JST_XH_S4B-XH-A-1_1x04_P2.50mm_Horizontal","~"
J12 ,1,"Conn_01x02_Male","Connector_JST:JST_XH_S2B-XH-A_1x02_P2.50mm_Horizontal","~"
J13 ,1,"Conn_01x02_Male","Connector_PinHeader_2.54mm:PinHeader_1x02_P2.54mm_Vertical","~"
J2 J4 J6 J8 J7 J9 ,6,"Barrel_Jack","astrohat:BarrelJack_Horizontal","~"
J3 J5 ,2,"Conn_Coaxial_Power","astrohat:rca_black","~","Switchcraft","PJRAN1X1U03AUX"
L1 ,1,"3.3u","Inductor_SMD:L_Coilcraft_XxL4030","~","Coilcraft","XAL4030-332MEC"
Q1 ,1,"DMG2305UX","Package_TO_SOT_SMD:SOT-23","https://www.diodes.com/assets/Datasheets/DMG2305UX.pdf","Diodes Incorporated","DMG2305UXQ-7"
R1 ,1,"23.2k","Resistor_SMD:R_0805_2012Metric_Pad1.15x1.40mm_HandSolder","~","Panasonic","ERJ-6ENF2322V"
R14 R24 R34 ,3,"1.2k","Resistor_SMD:R_0603_1608Metric_Pad1.05x0.95mm_HandSolder","~","Panasonic","ERJ-3EKF1201V"
R16 R26 R36 ,3,"47","Resistor_SMD:R_0603_1608Metric_Pad1.05x0.95mm_HandSolder","~","Panasonic","ERJ-3EKF47R0V"
R2 ,1,"56.2k","Resistor_SMD:R_0805_2012Metric_Pad1.15x1.40mm_HandSolder","~","Panasonic","ERJ-6ENF5622V"
R3 ,1,"60.4k","Resistor_SMD:R_0805_2012Metric_Pad1.15x1.40mm_HandSolder","~","Vishay-Dale","CRCW080560K4FKEA"
R37 R5 ,2,"1k","Resistor_SMD:R_0603_1608Metric_Pad1.05x0.95mm_HandSolder","~","Panasonic","ERJ-3EKF1001V"
R39 ,1,"10k","Resistor_SMD:R_0603_1608Metric_Pad1.05x0.95mm_HandSolder","~","Panasonic","ERJ-3EKF1002V"
R4 ,1,"11.5k","Resistor_SMD:R_0805_2012Metric_Pad1.15x1.40mm_HandSolder","~","Vishay-Dale","CRCW080511K5FKEA"
R6 R38 ,2,"3.9k","Resistor_SMD:R_0603_1608Metric_Pad1.05x0.95mm_HandSolder","~","Panasonic","ERJ-3EKF3901V"
R7 R9 R12 R15 R11 R10 R17 R19 R22 R25 R21 R20 R27 R29 R32 R35 R31 R30 ,18,"4.7k","Resistor_SMD:R_0603_1608Metric_Pad1.05x0.95mm_HandSolder","~","Panasonic","ERJ-3EKF4701V"
R8 R13 R18 R23 R28 R33 R40 ,7,"47k","Resistor_SMD:R_0603_1608Metric_Pad1.05x0.95mm_HandSolder","~","Panasonic","ERJ-3EKF4702V"
U1 ,1,"TPS54360B-Q1","Package_SO:TI_SO-PowerPAD-8_ThermalVias","http://www.ti.com/lit/ds/symlink/tps54360.pdf","Texas Instruments","TPS54360BQDDAQ1"
U2 ,1,"CAT24C32WI-GT3","Package_SO:SOIC-8_3.9x4.9mm_P1.27mm","http://ww1.microchip.com/downloads/en/DeviceDoc/21703d.pdf","ON Semiconductor","CAT24C32WI-GT3"
U3 ,1,"DMMT5401","Package_SO:SC-74-6_1.5x2.9mm_P0.95mm","https://www.diodes.com/assets/Datasheets/ds30437.pdf","Diodes Incorporated","DMMT5401-7-F"
U4 U5 U7 ,3,"BTS7010-2EPA","Package_SO:Infineon_PG-TSDSO-14-22","https://gr.mouser.com/datasheet/2/196/Infineon-BTS7010-2EPA-DS-v01_03-EN-1274323.pdf","Infineon","BTS70102EPAXUMA1 "
U6 ,1,"MCP3004","Package_SO:SOIC-14_3.9x8.7mm_P1.27mm","http://ww1.microchip.com/downloads/en/DeviceDoc/21295C.pdf","Microchip Technology","MCP3004-I/SL"
U8 ,1,"MCP41010","Package_SO:SOIC-8_3.9x4.9mm_P1.27mm","http://ww1.microchip.com/downloads/en/DeviceDoc/11195c.pdf","Microchip Technology","MCP41010T-I/SN"
U9 ,1,"MIC29302WU","Package_TO_SOT_SMD:TO-263-5_TabPin3","http://ww1.microchip.com/downloads/en/devicedoc/20005685a.pdf","Microchip Technology","MIC29302WU"