(module dc_socket (layer F.Cu) (tedit 5DDBC307)
  (descr "Socket, DC power supply")
  (fp_text reference dc_socket (at 0 8.6995) (layer F.SilkS)
    (effects (font (size 1.524 1.524) (thickness 0.3048)))
  )
  (fp_text value VAL** (at 0 -8.60044) (layer F.SilkS)
    (effects (font (size 1.524 1.524) (thickness 0.3048)))
  )
  (fp_line (start -4.50088 2.79908) (end 4.50088 2.79908) (layer F.SilkS) (width 0.15))
  (fp_line (start 4.50088 2.79908) (end 4.50088 -7.29996) (layer F.SilkS) (width 0.15))
  (fp_line (start 4.50088 -7.29996) (end -4.50088 -7.29996) (layer F.SilkS) (width 0.15))
  (fp_line (start -4.50088 -7.29996) (end -4.50088 2.79908) (layer F.SilkS) (width 0.15))
  (pad 1 thru_hole oval (at 5.30098 -3.50012) (size 1.99898 4.0005) (drill oval 1.00076 2.99974) (layers *.Cu *.Mask F.SilkS))
  (pad 2 thru_hole oval (at 0 -0.24892) (size 4.0005 1.99898) (drill oval 2.99974 1.00076) (layers *.Cu *.Mask F.SilkS))
  (pad 3 thru_hole oval (at 0 -6.25094) (size 4.50088 1.99898) (drill oval 3.50012 1.00076) (layers *.Cu *.Mask F.SilkS))
  (model ${KIPRJMOD}/3d/dc_socket.wrl
    (at (xyz 0 0 0))
    (scale (xyz 1 1 1))
    (rotate (xyz 0 0 0))
  )
)
